{
    "_id": "SbfCzPannCdZEB7c",
    "content": "<p>You can either draw two more cards or gain [[/r 1d10*100 #XP]]{1d10*100 XP}. The card then disappears forever.</p>",
    "flags": {},
    "name": "Jester",
    "permission": {
        "default": 0
    }
}
