{
    "_id": "kmhZZgR7KlBzRBX0",
    "data": {
        "boosts": {
            "0": {
                "value": [
                    "dex",
                    "str"
                ]
            },
            "1": {
                "value": [
                    "cha",
                    "con",
                    "dex",
                    "int",
                    "str",
                    "wis"
                ]
            }
        },
        "description": {
            "value": "<p>You practically live behind the controls of a vehicle, and can handle just about anything the road, waves, and sky can throw at you. You likely adventure to test your skills in unusual environments and new and interesting vehicles.</p>\n<p>Choose two ability boosts. One must be to <strong>Strength</strong> or <strong>Dexterity</strong>, and one is a free ability boost.</p>\n<p>You're trained in the Acrobatics skill and the Piloting Lore skill. You gain the @Compendium[pf2e.feats-srd.Assurance]{Assurance} skill feat with Piloting Lore.</p>"
        },
        "items": {},
        "rules": [],
        "source": {
            "value": "Pathfinder Guns & Gears"
        },
        "trainedLore": "Piloting",
        "trainedSkills": {
            "custom": "",
            "value": [
                "acr"
            ]
        },
        "traits": {
            "custom": "",
            "rarity": {
                "value": "common"
            },
            "value": []
        }
    },
    "effects": [],
    "flags": {},
    "img": "systems/pf2e/icons/default-icons/background.svg",
    "name": "Driver",
    "type": "background"
}
