{
    "_id": "BagxmaKWmG5SYdFV",
    "data": {
        "baseItem": null,
        "brokenThreshold": {
            "value": 0
        },
        "bulkCapacity": {
            "value": ""
        },
        "collapsed": {
            "value": false
        },
        "containerId": {
            "value": null
        },
        "description": {
            "value": "<p>This polished golden bracelet is formed around the scale of a famous dragon. The bracelet is etched with esoteric symbols or words—always in Draconic—that indicate kinship with dragons. As many types of <em>dragon rune bracelets</em> exist as there are types of dragons, though dragon rune bracelets associated with Uncommon or Rare dragons are Rare.</p>\n<p>While wearing a <em>dragon rune bracelet</em>, you gain a +2 item bonus to Diplomacy checks while interacting with dragons of the same type as the pendant's scale (such as red dragons or cloud dragons). You also gain a +2 item bonus to saving throws against fear effects from any kind of dragon.</p>\n<hr />\n<p><strong>Activate</strong> <span class=\"pf2-icon\">f</span> envision</p>\n<p><strong>Requirements</strong> You can cast bloodline spells from the draconic bloodline, such as from the sorcerer class or sorcerer multiclass archetype</p>\n<p><strong>Frequency</strong> Once per day</p>\n<p><strong>Effect</strong> You regain 1 Focus Point, which you can spend only to cast a sorcerer bloodline spell. If you don't spend this Focus Point by the end of your turn, it is lost.</p>\n<hr />\n<p><em>Automatically added effects: +2 item bonus to saving throws against fear effects caused by dragons.</em></p>"
        },
        "equipped": {
            "value": false
        },
        "equippedBulk": {
            "value": ""
        },
        "hardness": {
            "value": 0
        },
        "hp": {
            "value": 0
        },
        "identification": {
            "misidentified": {},
            "status": "identified",
            "unidentified": {
                "data": {
                    "description": {
                        "value": ""
                    }
                },
                "img": "",
                "name": ""
            }
        },
        "invested": {
            "value": null
        },
        "level": {
            "value": 11
        },
        "maxHp": {
            "value": 0
        },
        "negateBulk": {
            "value": "0"
        },
        "preciousMaterial": {
            "value": null
        },
        "preciousMaterialGrade": {
            "value": null
        },
        "price": {
            "value": "1400 gp"
        },
        "quantity": {
            "value": 1
        },
        "rules": [
            {
                "key": "FlatModifier",
                "label": "Dragon Rune Bracelet: Dragons of the same type as the bracelet.",
                "predicate": {
                    "all": [
                        "same-type-dragon"
                    ]
                },
                "selector": "diplomacy",
                "type": "item",
                "value": 2
            },
            {
                "key": "FlatModifier",
                "label": "Dragon Rune Bracelet: Fear effects from dragons",
                "predicate": {
                    "all": [
                        "fear",
                        "dragon"
                    ]
                },
                "selector": "saving-throw",
                "type": "item",
                "value": 2
            }
        ],
        "size": {
            "value": "med"
        },
        "source": {
            "value": "Pathfinder #171: Hurricane's Howl"
        },
        "stackGroup": {
            "value": ""
        },
        "traits": {
            "custom": "",
            "rarity": {
                "value": "uncommon"
            },
            "value": [
                "enchantment",
                "focused",
                "invested",
                "magical"
            ]
        },
        "usage": {
            "value": "wornbracelet"
        },
        "weight": {
            "value": "-"
        }
    },
    "effects": [],
    "flags": {},
    "img": "systems/pf2e/icons/equipment/worn-items/other-worn-items/ring-of-maniacal-devices.webp",
    "name": "Dragon Rune Bracelet",
    "type": "equipment"
}
