{
    "_id": "eoQRjG2RjppnbYGL",
    "data": {
        "baseItem": null,
        "brokenThreshold": {
            "value": 0
        },
        "bulkCapacity": {
            "value": ""
        },
        "collapsed": {
            "value": false
        },
        "containerId": {
            "value": ""
        },
        "description": {
            "value": "<p>This fist-sized, 12-rayed black star sapphire is sacred to Yueral, the elven goddess of magic and jewels, and most accounts of its creation attribute its crafting to a circle of her worshippers. In addition to the abilities listed below, the gem functions as a portal key for Jewelgate at Alseta's Ring.</p>\n<p><strong>Activate</strong> <span class=\"pf2-icon\">A</span> Interact</p>\n<p><strong>Effect</strong> You touch the <em>Eye of the Wise</em> to a gem worth at least 10 gp, whereupon the <em>Eye of the Wise</em> assumes the appearance of the touched gemstone. While this connection is active, the carriers of the <em>Eye of the Wise</em> and of the other gemstone can communicate telepathically with one another over any distance, as long as both are on the same plane. This connection is broken if the other gemstone is damaged, if the <em>Eye of the Wise</em> becomes attuned to another gemstone, or if the bearer of the <em>Eye of the Wise </em>dismisses the activation.</p>\n<p><strong>Activate</strong> <span class=\"pf2-icon\">A</span> Interact</p>\n<p><strong>Effect</strong> You hold the <em>Eye of the Wise</em> up to your own eye and peer through it. The <em>Eye of the Wise</em> grows transparent and grants you a +2 item bonus to attempts to Decipher Writing, Disable a Device, Identify Magic, Pick a Lock, Seek, or Sense Motive. You can Sustain this activation as long as you hold the gem in place.</p>"
        },
        "equipped": {
            "value": false
        },
        "equippedBulk": {
            "value": ""
        },
        "hardness": {
            "value": 0
        },
        "hp": {
            "value": 0
        },
        "identification": {
            "misidentified": {},
            "status": "identified",
            "unidentified": {
                "data": {
                    "description": {
                        "value": ""
                    }
                },
                "img": "",
                "name": ""
            }
        },
        "invested": {
            "value": false
        },
        "level": {
            "value": 11
        },
        "maxHp": {
            "value": 0
        },
        "negateBulk": {
            "value": ""
        },
        "preciousMaterial": {
            "value": ""
        },
        "preciousMaterialGrade": {
            "value": ""
        },
        "price": {
            "value": "0 gp"
        },
        "quantity": {
            "value": 1
        },
        "rules": [],
        "size": {
            "value": "med"
        },
        "source": {
            "value": "Pathfinder #147: Tomorrow Must Burn"
        },
        "stackGroup": {
            "value": ""
        },
        "traits": {
            "custom": "",
            "rarity": {
                "value": "unique"
            },
            "value": [
                "artifact",
                "divination",
                "invested"
            ]
        },
        "usage": {
            "value": "held-in-one-hand"
        },
        "weight": {
            "value": "L"
        }
    },
    "effects": [],
    "flags": {},
    "img": "systems/pf2e/icons/equipment/artifacts/eye-of-the-wise.webp",
    "name": "Eye of the Wise",
    "type": "equipment"
}
