{
    "_id": "iCRoLguNunOjIM7L",
    "data": {
        "activation": {
            "condition": "",
            "cost": 0,
            "type": ""
        },
        "autoDestroy": {
            "_deprecated": true,
            "value": true
        },
        "autoUse": {
            "_deprecated": true,
            "value": true
        },
        "baseItem": null,
        "brokenThreshold": {
            "value": 0
        },
        "bulkCapacity": {
            "value": ""
        },
        "charges": {
            "_deprecated": true,
            "max": 0,
            "value": 0
        },
        "collapsed": {
            "value": false
        },
        "consumableType": {
            "value": "poison"
        },
        "consume": {
            "_deprecated": true,
            "value": ""
        },
        "containerId": {
            "value": null
        },
        "description": {
            "value": "<p>Activate <span class=\"pf2-icon\">1</span> Interact</p>\n<p>Used to write secret messages, a single dose of forgetful ink is enough to pen a page of text, often with flourishes extending to the page's edges. Anyone handling the page is exposed to the poison. This includes casual reading, unless the reader specifically takes precautions not to physically touch it. Unlike other poisons, forgetful ink retains its potency for one year, regardless of the number of victims exposed.</p>\n<hr />\n<p><strong>Saving Throw</strong> <span data-pf2-check=\"fortitude\" data-pf2-traits=\"secret,alchemical,consumable,contact,poison\" data-pf2-label=\"Forgetful Ink DC\" data-pf2-dc=\"20\" data-pf2-show-dc=\"gm\">Fortitude</span> (secret)</p>\n<div data-visibility=\"gm\">\n<p><strong>Onset</strong> 1 minute</p>\n<p><strong>Stage 1</strong> The reader forgets the contents of the writing, recalling it as blank or as inconsequential text.</p>\n</div>"
        },
        "duration": {
            "units": "",
            "value": null
        },
        "equipped": {
            "value": false
        },
        "equippedBulk": {
            "value": ""
        },
        "hardness": {
            "value": 0
        },
        "hp": {
            "value": 0
        },
        "identification": {
            "misidentified": {},
            "status": "identified",
            "unidentified": {
                "data": {
                    "description": {
                        "value": ""
                    }
                },
                "img": "",
                "name": ""
            }
        },
        "level": {
            "value": 6
        },
        "maxHp": {
            "value": 0
        },
        "negateBulk": {
            "value": "0"
        },
        "preciousMaterial": {
            "value": null
        },
        "preciousMaterialGrade": {
            "value": null
        },
        "price": {
            "value": "32 gp"
        },
        "quantity": {
            "value": 1
        },
        "range": {
            "long": null,
            "units": "",
            "value": null
        },
        "rules": [],
        "size": {
            "value": "med"
        },
        "source": {
            "value": "Pathfinder #169: Kindled Magic"
        },
        "spell": {
            "data": null,
            "heightenedLevel": null
        },
        "stackGroup": {
            "value": ""
        },
        "target": {
            "type": "",
            "units": "",
            "value": null
        },
        "traits": {
            "custom": "",
            "rarity": {
                "value": "uncommon"
            },
            "value": [
                "alchemical",
                "consumable",
                "contact",
                "poison"
            ]
        },
        "usage": {
            "value": "held-in-two-hands"
        },
        "uses": {
            "autoDestroy": true,
            "autoUse": true,
            "max": 0,
            "per": null,
            "value": 0
        },
        "weight": {
            "value": "L"
        }
    },
    "effects": [],
    "flags": {},
    "img": "systems/pf2e/icons/default-icons/consumable.svg",
    "name": "Forgetful Ink",
    "type": "consumable"
}
