{
    "_id": "nZE16PtiyY7DWlzd",
    "data": {
        "baseItem": null,
        "brokenThreshold": {
            "value": 0
        },
        "bulkCapacity": {
            "value": ""
        },
        "collapsed": {
            "value": false
        },
        "containerId": {
            "value": ""
        },
        "description": {
            "value": "<p>These white silk gloves are adorned in red hearts that glow faintly whenever you are adjacent to someone you feel particularly strongly toward. They buoy your spirit, giving you a +1 item bonus to Diplomacy checks.</p>\n<p><strong>Activate</strong> <span class=\"pf2-icon\">1</span> Interact</p>\n<p><strong>Frequency</strong> once per day</p>\n<p><strong>Effect</strong> You grasp the hands of a willing creature you have strong positive feelings about, regardless of the nature of those feelings. The creature gains a +1 status bonus to saving throws and 10 temporary Hit Points for 10 minutes. If the creature shares your feelings, you gain the same benefits, and for the duration, when you both roll a success on a saving throw against an emotion effect that causes negative emotions, you both get a critical success instead.</p>\n<p>@Compendium[pf2e.equipment-effects.Effect: Lover's Gloves]{Effect: Lover's Gloves}</p>\n<hr />\n<p>Automatically applied effects:</p>\n<ul>\n<li>+1 item bonus to Diplomacy checks</li>\n</ul>"
        },
        "equipped": {
            "value": false
        },
        "equippedBulk": {
            "value": ""
        },
        "hardness": {
            "value": 0
        },
        "hp": {
            "value": 0
        },
        "identification": {
            "misidentified": {},
            "status": "identified",
            "unidentified": {
                "data": {
                    "description": {
                        "value": ""
                    }
                },
                "img": "",
                "name": ""
            }
        },
        "invested": {
            "value": false
        },
        "level": {
            "value": 8
        },
        "maxHp": {
            "value": 0
        },
        "negateBulk": {
            "value": "0"
        },
        "preciousMaterial": {
            "value": ""
        },
        "preciousMaterialGrade": {
            "value": ""
        },
        "price": {
            "value": "500 gp"
        },
        "quantity": {
            "value": 1
        },
        "rules": [
            {
                "key": "FlatModifier",
                "selector": "diplomacy",
                "type": "item",
                "value": 1
            }
        ],
        "size": {
            "value": "med"
        },
        "source": {
            "value": "Pathfinder Advanced Player's Guide"
        },
        "stackGroup": {
            "value": ""
        },
        "traits": {
            "custom": "",
            "rarity": {
                "value": "common"
            },
            "value": [
                "emotion",
                "enchantment",
                "invested",
                "magical",
                "mental"
            ]
        },
        "usage": {
            "value": "worngloves"
        },
        "weight": {
            "value": "-"
        }
    },
    "effects": [],
    "flags": {},
    "img": "systems/pf2e/icons/equipment/worn-items/other-worn-items/lovers-gloves.webp",
    "name": "Lover's Gloves",
    "type": "equipment"
}
