{
    "_id": "LKIs3LJqrKNP2yrx",
    "data": {
        "MAP": {
            "value": ""
        },
        "baseItem": null,
        "bonus": {
            "value": 0
        },
        "bonusDamage": {
            "value": 0
        },
        "brokenThreshold": {
            "value": 0
        },
        "bulkCapacity": {
            "value": ""
        },
        "category": "simple",
        "collapsed": {
            "value": false
        },
        "containerId": {
            "value": null
        },
        "damage": {
            "damageType": "slashing",
            "dice": 1,
            "die": "d6",
            "value": ""
        },
        "description": {
            "value": "<p>The blade of this <em>+2 greater striking adamantine longsword</em> seems to absorb light from the air around it, giving the impression the wielder is standing in the shadow of a much larger creature.</p>\n<p>While <em>Spellcutter</em> is a potent weapon for battling undead and constructs, an ancient restriction on the blade prevents it from harming living creatures; attacks against living beings deal no damage. This restriction doesn't apply to dhampirs or creatures with the @Compendium[pf2e.bestiary-ability-glossary-srd.Negative Healing]{Negative Healing} ability who are otherwise living; the magic of the blade can't distinguish between such beings and undead.</p>\n<hr />\n<p><strong>Activate</strong> <span class=\"pf2-icon\">R</span> envision</p>\n<p><strong>Trigger</strong> You're targeted by a spell while wielding <em>Spellcutter</em></p>\n<p><strong>Effect</strong> <em>Spellcutter</em> attempts to absorb the magic of the triggering spell, giving you a +4 status bonus to your AC and saves against the effect.</p>\n<hr />\n<p><strong>Activate</strong> <span class=\"pf2-icon\">1</span> Interact</p>\n<p><strong>Effect</strong> Touching <em>Spellcutter</em> to any light source of 12th level or lower (including 6th-level spells with the light trait) instantly extinguishes the effect. If the source of the light is a large flame, such as a forest fire or bonfire, it only extinguishes the light source in a 5-foot radius burst from the point of contact.</p>"
        },
        "equipped": {
            "value": false
        },
        "equippedBulk": {
            "value": ""
        },
        "group": null,
        "hands": {
            "value": false
        },
        "hardness": {
            "value": 0
        },
        "hp": {
            "value": 0
        },
        "identification": {
            "misidentified": {},
            "status": "identified",
            "unidentified": {
                "data": {
                    "description": {
                        "value": ""
                    }
                },
                "img": "",
                "name": ""
            }
        },
        "invested": {
            "value": null
        },
        "level": {
            "value": 17
        },
        "maxHp": {
            "value": 0
        },
        "negateBulk": {
            "value": "0"
        },
        "potencyRune": {
            "value": 0
        },
        "preciousMaterial": {
            "value": null
        },
        "preciousMaterialGrade": {
            "value": null
        },
        "price": {
            "value": "15000 gp"
        },
        "property1": {
            "critDamage": "",
            "critDamageType": "",
            "critDice": 0,
            "critDie": "",
            "criticalConditionType": "",
            "criticalConditionValue": null,
            "damageType": "",
            "dice": 0,
            "die": "",
            "strikeConditionType": "",
            "strikeConditionValue": null,
            "value": ""
        },
        "propertyRune1": {
            "value": null
        },
        "propertyRune2": {
            "value": null
        },
        "propertyRune3": {
            "value": null
        },
        "propertyRune4": {
            "value": null
        },
        "quantity": {
            "value": 1
        },
        "range": null,
        "reload": {
            "value": ""
        },
        "rules": [
            {
                "key": "ToggleProperty",
                "label": "Targeted by a Spell",
                "property": "flags.pf2e.rollOptions.all.spellcutter"
            },
            {
                "key": "FlatModifier",
                "predicate": {
                    "all": [
                        "spellcutter"
                    ]
                },
                "selector": "ac",
                "type": "status",
                "value": 4
            },
            {
                "key": "FlatModifier",
                "predicate": {
                    "all": [
                        "spellcutter"
                    ]
                },
                "selector": "saving-throw",
                "type": "status",
                "value": 4
            }
        ],
        "size": {
            "value": "med"
        },
        "source": {
            "value": "Pathfinder #173: Doorway to the Red Star"
        },
        "specific": {
            "value": false
        },
        "splashDamage": {
            "value": 0
        },
        "stackGroup": {
            "value": ""
        },
        "strikingRune": {
            "value": ""
        },
        "traits": {
            "custom": "",
            "rarity": {
                "value": "unique"
            },
            "value": []
        },
        "usage": {
            "value": "held-in-one-hand"
        },
        "weight": {
            "value": "1"
        }
    },
    "effects": [],
    "flags": {},
    "img": "systems/pf2e/icons/default-icons/weapon.svg",
    "name": "Spellcutter",
    "type": "weapon"
}
