{
    "_id": "WisQuxckwd6XU5MF",
    "data": {
        "attributes": {
            "ac": {
                "value": 19
            },
            "hardness": 10,
            "hasHealth": true,
            "hp": {
                "details": "",
                "max": 44,
                "temp": 0,
                "value": 44
            },
            "stealth": {
                "details": "<p>(trained)</p>",
                "value": 10
            }
        },
        "creatureType": "",
        "details": {
            "description": "<p>With a rumble, this statue of a former Pathfinder slides across the schoolyard. Its legs pump up and down as it advances.</p>",
            "disable": "<p><span data-pf2-check=\"athletics\" data-pf2-traits=\"complex,hazard,magical,trap\" data-pf2-label=\"Hold Back Statue DC\" data-pf2-dc=\"23\" data-pf2-show-dc=\"gm\">Athletics</span> to hold it back, <span data-pf2-check=\"crafting\" data-pf2-traits=\"complex,hazard,magical,trap\" data-pf2-label=\"Break Statue DC\" data-pf2-dc=\"20\" data-pf2-show-dc=\"gm\">Crafting</span> (trained) to break the statue by exploiting a flaw, <span data-pf2-check=\"occultism\" data-pf2-traits=\"complex,hazard,magical,trap\" data-pf2-label=\"Dispel Planar Energies DC\" data-pf2-dc=\"18\" data-pf2-show-dc=\"gm\">Occultism</span> (trained) to dispel the planar energies</p>",
            "isComplex": true,
            "level": {
                "value": 3
            },
            "reset": "",
            "routine": "<p>(3 actions) The trap uses its three actions for its Trample activity.</p>"
        },
        "saves": {
            "fortitude": {
                "saveDetail": "",
                "value": 12
            },
            "reflex": {
                "saveDetail": "",
                "value": 6
            },
            "will": {
                "saveDetail": "",
                "value": 0
            }
        },
        "source": {
            "value": "Pathfinder Society Scenario #2-09: The Seven Secrets of Dacilane Academy"
        },
        "statusEffects": [],
        "traits": {
            "ci": [],
            "di": {
                "custom": "",
                "selected": {},
                "value": []
            },
            "dr": [],
            "dv": [],
            "rarity": {
                "value": "common"
            },
            "size": {
                "value": "med"
            },
            "traits": {
                "custom": "",
                "value": [
                    "magical",
                    "trap"
                ]
            }
        }
    },
    "effects": [],
    "flags": {},
    "img": "systems/pf2e/icons/default-icons/hazard.svg",
    "items": [
        {
            "_id": "P8i9XaIp5XMd8G4i",
            "data": {
                "actionCategory": {
                    "value": "offensive"
                },
                "actionType": {
                    "value": "passive"
                },
                "actions": {
                    "value": null
                },
                "description": {
                    "value": ""
                },
                "requirements": {
                    "value": ""
                },
                "rules": [],
                "slug": null,
                "source": {
                    "value": ""
                },
                "traits": {
                    "custom": "",
                    "rarity": {
                        "value": "common"
                    },
                    "value": []
                },
                "trigger": {
                    "value": ""
                }
            },
            "effects": [],
            "flags": {},
            "img": "systems/pf2e/icons/actions/Passive.webp",
            "name": "Speed 30 feet",
            "sort": 0,
            "type": "action"
        },
        {
            "_id": "DKSXM804U33m9ko4",
            "data": {
                "actionCategory": {
                    "value": "defensive"
                },
                "actionType": {
                    "value": "reaction"
                },
                "actions": {
                    "value": null
                },
                "description": {
                    "value": "<p data-visibility=\"gm\"><strong>Trigger</strong> A creature approaches within 10 feet of the trap.</p>\n<p><strong>Effect</strong> The statue Strides up to 30 feet in the direction of the triggering creature. It deals [[/r {1d10+6}]]{1d10+6 damage} (<span data-pf2-check=\"reflex\" data-pf2-traits=\"damaging-effect,complex,hazard,magical,trap\" data-pf2-label=\"Slide DC\" data-pf2-dc=\"17\" data-pf2-show-dc=\"gm\">basic Reflex</span> save) to each creature whose space it enters.</p>"
                },
                "requirements": {
                    "value": ""
                },
                "rules": [],
                "slug": null,
                "source": {
                    "value": ""
                },
                "traits": {
                    "custom": "",
                    "rarity": {
                        "value": "common"
                    },
                    "value": []
                },
                "trigger": {
                    "value": ""
                }
            },
            "effects": [],
            "flags": {},
            "img": "systems/pf2e/icons/actions/Reaction.webp",
            "name": "Slide",
            "sort": 0,
            "type": "action"
        },
        {
            "_id": "1QnqVTPWNu1c3L1T",
            "data": {
                "attack": {
                    "value": ""
                },
                "attackEffects": {
                    "value": []
                },
                "bonus": {
                    "value": 9
                },
                "damageRolls": {
                    "34c5bysy0cmpg6eufzu8": {
                        "damage": "1d10+6",
                        "damageType": "bludgeoning"
                    }
                },
                "description": {
                    "value": ""
                },
                "rules": [],
                "slug": null,
                "source": {
                    "value": ""
                },
                "traits": {
                    "custom": "",
                    "rarity": {
                        "value": "common"
                    },
                    "value": []
                },
                "weaponType": {
                    "value": "melee"
                }
            },
            "effects": [],
            "flags": {},
            "img": "systems/pf2e/icons/default-icons/melee.svg",
            "name": "Crushing Feet",
            "sort": 0,
            "type": "melee"
        },
        {
            "_id": "HnOXqTctmMU1QLjR",
            "data": {
                "actionCategory": {
                    "value": "offensive"
                },
                "actionType": {
                    "value": "action"
                },
                "actions": {
                    "value": 3
                },
                "description": {
                    "value": "<p>Medium or smaller, crushing feet <span data-pf2-check=\"reflex\" data-pf2-dc=\"20\" data-pf2-traits=\"damaging-effect\" data-pf2-label=\"Trample DC\" data-pf2-show-dc=\"gm\">Reflex</span></p>\n<hr />\n<p>@Localize[PF2E.NPC.Abilities.Glossary.Trample]</p>"
                },
                "requirements": {
                    "value": ""
                },
                "rules": [],
                "slug": "trample",
                "source": {
                    "value": ""
                },
                "traits": {
                    "custom": "",
                    "rarity": {
                        "value": "common"
                    },
                    "value": []
                },
                "trigger": {
                    "value": ""
                },
                "weapon": {
                    "value": ""
                }
            },
            "effects": [],
            "flags": {
                "core": {
                    "sourceId": "Compendium.pf2e.bestiary-ability-glossary-srd.UNah0bxXxkcZjxO3"
                }
            },
            "img": "systems/pf2e/icons/actions/ThreeActions.webp",
            "name": "Trample",
            "sort": 0,
            "type": "action"
        }
    ],
    "name": "Sliding Statue (3-4)",
    "token": {
        "disposition": 0,
        "height": 1,
        "img": "systems/pf2e/icons/default-icons/hazard.svg",
        "name": "Sliding Statue",
        "width": 1
    },
    "type": "hazard"
}
