{
    "_id": "zdJHl3xMY7n2Lwlf",
    "data": {
        "attributes": {
            "ac": {
                "value": 30
            },
            "hardness": 18,
            "hasHealth": true,
            "hp": {
                "details": "",
                "max": 72,
                "temp": 0,
                "tempmax": 0,
                "value": 72
            },
            "stealth": {
                "details": "<p>(expert); <span data-pf2-check=\"perception\" data-pf2-traits=\"complex,mechanical,trap,hazard\" data-pf2-label=\"Notice the Line of Cord DC\" data-pf2-dc=\"29\" data-pf2-show-dc=\"gm\">Perception</span> to notice the line of cord running from the lathe's trigger toward the door to area <strong>A2</strong>.</p>",
                "value": 19
            }
        },
        "creatureType": "",
        "details": {
            "description": "<p>The powered lathe's springs have been critically overwound so that when jostled or triggered, the lathe unwinds violently, hurling blades, gears, and sharp shards of metal around the room.</p>",
            "disable": "<p><span data-pf2-check=\"thievery\" data-pf2-traits=\"complex,mechanical,trap,hazard\" data-pf2-label=\"Release the Spring Tension DC\" data-pf2-dc=\"31\" data-pf2-show-dc=\"gm\">Thievery</span> (expert) on the lathe releases the tension on its springs without unleashing its blades and gears.</p>",
            "isComplex": true,
            "level": {
                "value": 10
            },
            "reset": "",
            "routine": "(4 actions) The lathe attempts four sharpened fragment attacks against creatures in the room, selecting a target randomly from all available targets in area A1. The trap does not take multiple attack penalties for any of its attacks. The trap loses 1 action each turn as its springs wind down, and becomes disabled when it has 0 actions."
        },
        "saves": {
            "fortitude": {
                "saveDetail": "",
                "value": 22
            },
            "reflex": {
                "saveDetail": "",
                "value": 14
            },
            "will": {
                "saveDetail": "",
                "value": 0
            }
        },
        "source": {
            "value": "Pathfinder #147: Tomorrow Must Burn"
        },
        "statusEffects": [],
        "traits": {
            "ci": [],
            "di": {
                "custom": "",
                "selected": {},
                "value": [
                    "critical-hits",
                    "object-immunities",
                    "precision"
                ]
            },
            "dr": [],
            "dv": [],
            "rarity": {
                "value": "common"
            },
            "size": {
                "value": "med"
            },
            "traits": {
                "custom": "",
                "value": [
                    "mechanical",
                    "trap"
                ]
            }
        }
    },
    "effects": [],
    "flags": {},
    "img": "systems/pf2e/icons/default-icons/hazard.svg",
    "items": [
        {
            "_id": "Da7jV5DGeFRpV5qb",
            "data": {
                "actionCategory": {
                    "value": ""
                },
                "actionType": {
                    "value": "reaction"
                },
                "actions": {
                    "value": null
                },
                "description": {
                    "value": "<p data-visibility=\"gm\"><strong>Trigger</strong> The lathe is jostled or damaged, or its trigger is remotely pulled.</p>\n<p><strong>Effect</strong> The trap makes a sharpened fragment Strike against a random target in area <strong>A1</strong>, then rolls for initiative.</p>"
                },
                "requirements": {
                    "value": ""
                },
                "rules": [],
                "slug": null,
                "source": {
                    "value": ""
                },
                "traits": {
                    "custom": "",
                    "rarity": {
                        "value": "common"
                    },
                    "selected": {},
                    "value": []
                },
                "trigger": {
                    "value": ""
                },
                "weapon": {
                    "value": ""
                }
            },
            "effects": [],
            "flags": {},
            "img": "systems/pf2e/icons/actions/Reaction.webp",
            "name": "Unleash Fragments",
            "sort": 100000,
            "type": "action"
        },
        {
            "_id": "zVCalXk0BtUnOMfM",
            "data": {
                "attack": {
                    "value": ""
                },
                "attackEffects": {
                    "custom": "",
                    "value": [
                        "persistent-bleed-critical"
                    ]
                },
                "bonus": {
                    "value": 26
                },
                "damageRolls": {
                    "1etp12wxjv4icdxijeeq6": {
                        "damage": "2d8+12",
                        "damageType": "slashing"
                    }
                },
                "description": {
                    "value": ""
                },
                "rules": [],
                "slug": null,
                "source": {
                    "value": ""
                },
                "traits": {
                    "custom": "",
                    "rarity": {
                        "value": "common"
                    },
                    "selected": {},
                    "value": []
                },
                "weaponType": {
                    "value": "ranged"
                }
            },
            "effects": [],
            "flags": {},
            "img": "systems/pf2e/icons/default-icons/melee.svg",
            "name": "Sharpened Fragment",
            "sort": 200000,
            "type": "melee"
        },
        {
            "_id": "USQ16Z86qZYqJDkV",
            "data": {
                "actionCategory": {
                    "value": ""
                },
                "actionType": {
                    "value": "passive"
                },
                "actions": {
                    "value": null
                },
                "description": {
                    "value": "<p>The sharpened fragments deal [[/r {1d8}[persistent,bleed]]] @Compendium[pf2e.conditionitems.Persistent Damage]{Persistent Bleed Damage} on a critical hit.</p>"
                },
                "requirements": {
                    "value": ""
                },
                "rules": [],
                "slug": null,
                "source": {
                    "value": ""
                },
                "traits": {
                    "custom": "",
                    "rarity": {
                        "value": "common"
                    },
                    "selected": {},
                    "value": []
                },
                "trigger": {
                    "value": ""
                },
                "weapon": {
                    "value": ""
                }
            },
            "effects": [],
            "flags": {},
            "img": "systems/pf2e/icons/actions/Passive.webp",
            "name": "Persistent Bleed Critical",
            "sort": 300000,
            "type": "action"
        }
    ],
    "name": "Trapped Lathe",
    "token": {
        "disposition": 0,
        "height": 1,
        "img": "systems/pf2e/icons/default-icons/hazard.svg",
        "name": "Trapped Lathe",
        "width": 1
    },
    "type": "hazard"
}
