{
    "_id": "rLNl2PdawSadogJd",
    "content": "<table class=\"pf2-table\">\n<thead>\n<tr>\n<th>\n<h3><strong>Name</strong></h3>\n</th>\n<th>\n<h3><strong>Crit Effect</strong></h3>\n</th>\n<th>\n<h3><strong>Type</strong></h3>\n</th>\n</tr>\n</thead>\n<tbody>\n<tr>\n<td>\n<h3>Where Am I?</h3>\n</td>\n<td>\n<h3>Normal damage. The target is stunned 2.</h3>\n</td>\n<td>\n<h3>Bludgeoning</h3>\n</td>\n</tr>\n<tr>\n<td>\n<h3>Surprise Opening</h3>\n</td>\n<td>\n<h3>You gain 1 action that you can use before the end of your turn to use an attack action against the target.</h3>\n</td>\n<td>\n<h3>Piercing</h3>\n</td>\n</tr>\n<tr>\n<td>\n<h3>Missing Ear</h3>\n</td>\n<td>\n<h3>Normal damage. The target takes a -2 circumstance penalty to Perception check and Charisma-based check except Intimidation until healed.</h3>\n</td>\n<td>\n<h3>Slashing</h3>\n</td>\n</tr>\n<tr>\n<td>\n<h3>Mind Cloud</h3>\n</td>\n<td>\n<h3>The target is stupefied 2 until healed.</h3>\n</td>\n<td>\n<h3>Bomb or Spell</h3>\n</td>\n</tr>\n</tbody>\n</table>\n<h3 style=\"text-align: left;\"> </h3>",
    "flags": {},
    "name": "Critical Hit Deck #2",
    "permission": {
        "default": 0
    }
}
