{
    "_id": "Rkv1BGGapMuMyMHs",
    "content": "<table class=\"pf2-table\">\n<thead>\n<tr>\n<th>\n<h3><strong>Name</strong></h3>\n</th>\n<th>\n<h3><strong>Crit Effect</strong></h3>\n</th>\n<th>\n<h3><strong>Type</strong></h3>\n</th>\n</tr>\n</thead>\n<tbody>\n<tr>\n<td>\n<h3>Concussion</h3>\n</td>\n<td>\n<h3>Normal damage. The target is confused for 1 minute and stupefied 2 until healed.</h3>\n</td>\n<td>\n<h3>Bludgeoning</h3>\n</td>\n</tr>\n<tr>\n<td>\n<h3>Infection</h3>\n</td>\n<td>\n<h3>The target must succeed at a Fortitude save or contract filth fever (Pathfinder Bestiary 258).</h3>\n</td>\n<td>\n<h3>Piercing</h3>\n</td>\n</tr>\n<tr>\n<td>\n<h3>Flay</h3>\n</td>\n<td>\n<h3>Normal damage. The target is enfeebled 3 until healed.</h3>\n</td>\n<td>\n<h3>Slashing</h3>\n</td>\n</tr>\n<tr>\n<td>\n<h3>Corrosive</h3>\n</td>\n<td>\n<h3>If this is an acid bomb or spell, the target takes triple damage and 1d6 persistent acid damage. Any other bomb or spell deals double damage.</h3>\n</td>\n<td>\n<h3>Bomb or Spell</h3>\n</td>\n</tr>\n</tbody>\n</table>\n<h3 style=\"text-align: left;\"> </h3>",
    "flags": {},
    "name": "Critical Hit Deck #37",
    "permission": {
        "default": 0
    }
}
