{
    "_id": "naKVqd8POxcnGclz",
    "data": {
        "actionCategory": {
            "value": "interaction"
        },
        "actionType": {
            "value": "action"
        },
        "actions": {
            "value": 2
        },
        "description": {
            "value": "<p>You intentionally take your innovation beyond normal safety limits, making it explode and damage nearby creatures without damaging the innovation... hopefully. The explosion deals [[/r {2d6}[fire]]]{2d6 fire damage} with a basic Reflex save to all creatures in a @Template[type:emanation|distance:5] around you (if you're wearing or holding the innovation) or around your innovation (if your innovation is a minion).</p>\n<p>At 3rd level, and every level thereafter, increase your explosion's damage by 1d6.</p>"
        },
        "requirements": {
            "value": ""
        },
        "rules": [],
        "source": {
            "value": ""
        },
        "traits": {
            "custom": "",
            "rarity": {
                "value": "common"
            },
            "value": [
                "fire",
                "inventor",
                "manipulate",
                "unstable"
            ]
        },
        "trigger": {
            "value": ""
        }
    },
    "effects": [],
    "flags": {},
    "img": "systems/pf2e/icons/actions/TwoActions.webp",
    "name": "Explode",
    "type": "action"
}
