{
    "_id": "kKKHwVUnroKuAnOt",
    "data": {
        "actionCategory": {
            "value": "defensive"
        },
        "actionType": {
            "value": "reaction"
        },
        "actions": {
            "value": null
        },
        "description": {
            "value": "<p><strong>Frequency</strong> once per hour</p>\n<p><strong>Trigger</strong> A creature touches you, such as by Grappling you, successfully hitting you with an unarmed attack, or using a touch-range spell against you.</p>\n<hr />\n<p>You exude a deadly toxin. The triggering creature takes [[/r {1d4}[poison]]]{1d4 poison damage} (basic Fortitude save using your class DC or spell DC, whichever is higher). At 3rd level and every 2 levels thereafter, the damage increases by 1d4.</p>\n<p>[[/r ceil(@actor.level/2)d4 #poison]]{Levelled} poison damage</p>"
        },
        "requirements": {
            "value": ""
        },
        "rules": [],
        "source": {
            "value": "Pathfinder Lost Omens: The Mwangi Expanse"
        },
        "traits": {
            "custom": "",
            "rarity": {
                "value": "common"
            },
            "value": [
                "poison",
                "grippli"
            ]
        },
        "trigger": {
            "value": ""
        },
        "weapon": {
            "value": ""
        }
    },
    "effects": [],
    "flags": {},
    "img": "systems/pf2e/icons/actions/Reaction.webp",
    "name": "Toxic Skin",
    "type": "action"
}
