{
    "_id": "Gj6u2Za5okFlsTvT",
    "data": {
        "description": {
            "value": "<p>The creature takes a -2 status penalty to attack rolls for 1 round or until it Escapes (DC 18).</p>"
        },
        "duration": {
            "expiry": "turn-end",
            "sustained": false,
            "unit": "rounds",
            "value": 1
        },
        "level": {
            "value": 1
        },
        "rules": [
            {
                "key": "FlatModifier",
                "label": "Deadweight Snare (Failure or Critical Failure)",
                "selector": "attack",
                "type": "status",
                "value": -2
            }
        ],
        "source": {
            "value": ""
        },
        "start": {
            "initiative": null,
            "value": 0
        },
        "target": null,
        "tokenIcon": {
            "show": false
        },
        "traits": {
            "custom": "",
            "rarity": {
                "value": "common"
            },
            "value": []
        }
    },
    "effects": [],
    "flags": {},
    "img": "systems/pf2e/icons/default-icons/effect.svg",
    "name": "Effect: Deadweight Snare (Failure/Critical Failure)",
    "type": "effect"
}
