{
    "_id": "qXaXfqQfW3cp8kbI",
    "data": {
        "attributes": {
            "ac": {
                "value": 16
            },
            "hardness": 7,
            "hasHealth": true,
            "hp": {
                "details": "",
                "max": 24,
                "temp": 0,
                "value": 24
            },
            "stealth": {
                "details": "<p>(trained)</p>",
                "value": 7
            }
        },
        "creatureType": "",
        "details": {
            "description": "<p>A cloud of invisible magical sensors in a 10-foot radius surrounds the central column of the room.</p>",
            "disable": "<p><span data-pf2-check=\"acrobatics\" data-pf2-traits=\"magical,trap\" data-pf2-label=\"Approach the Rune DC\" data-pf2-dc=\"15\" data-pf2-show-dc=\"gm\">Acrobatics</span> to approach without triggering the trap followed by <span data-pf2-check=\"thievery\" data-pf2-traits=\"magical,trap\" data-pf2-label=\"Erase the Rune DC\" data-pf2-dc=\"17\" data-pf2-show-dc=\"gm\">Thievery</span> (trained) to erase the rune, or <span data-pf2-check=\"athletics\" data-pf2-traits=\"magical,trap\" data-pf2-label=\"Remove Stones DC\" data-pf2-dc=\"19\" data-pf2-show-dc=\"gm\">Athletics</span> to remove enough stones from the pillar to disrupt the magic, or dispel magic (1st level; counteract DC 15) to counteract the rune.</p>",
            "isComplex": true,
            "level": {
                "value": 1
            },
            "reset": "<p>The trap resets each day at dawn.</p>",
            "routine": ""
        },
        "saves": {
            "fortitude": {
                "saveDetail": "",
                "value": 10
            },
            "reflex": {
                "saveDetail": "",
                "value": 2
            },
            "will": {
                "saveDetail": "",
                "value": 0
            }
        },
        "source": {
            "value": ""
        },
        "statusEffects": [],
        "traits": {
            "ci": [],
            "di": {
                "custom": "",
                "selected": {},
                "value": [
                    "critical-hits",
                    "object-immunities",
                    "precision"
                ]
            },
            "dr": [],
            "dv": [],
            "rarity": {
                "value": "uncommon"
            },
            "size": {
                "value": "med"
            },
            "traits": {
                "custom": "",
                "value": [
                    "magical",
                    "trap"
                ]
            }
        }
    },
    "effects": [],
    "flags": {},
    "img": "systems/pf2e/icons/default-icons/hazard.svg",
    "items": [
        {
            "_id": "wz43EsdDh8PtPAEO",
            "data": {
                "actionCategory": {
                    "value": "offensive"
                },
                "actionType": {
                    "value": "reaction"
                },
                "actions": {
                    "value": null
                },
                "description": {
                    "value": "<p data-visibility=\"gm\"><strong>Trigger</strong> A creature enters the cloud of magical sensors</p>\n<p><strong>Effect</strong> The trap summons one of the creatures previously encountered in area B<span data-visibility=\"gm\"> with the weak adjustment</span>.<span data-visibility=\"gm\"> The creature rolls initiative and remains for 7 rounds, after which the spell ends and the creature disappears. The summoned creature also disappears if a creature disables the trap before the duration expires. The summoned creature can use 3 actions each round and can use reactions, unlike most summoned creatures.</span></p>"
                },
                "requirements": {
                    "value": ""
                },
                "rules": [],
                "slug": null,
                "source": {
                    "value": ""
                },
                "traits": {
                    "custom": "",
                    "rarity": {
                        "value": "common"
                    },
                    "value": [
                        "arcane",
                        "conjuration",
                        "summon"
                    ]
                },
                "trigger": {
                    "value": ""
                },
                "weapon": {
                    "value": ""
                }
            },
            "effects": [],
            "flags": {},
            "img": "systems/pf2e/icons/actions/Reaction.webp",
            "name": "Summon Weak Monster",
            "sort": 0,
            "type": "action"
        }
    ],
    "name": "Ancient Summoning Rune",
    "token": {
        "disposition": 0,
        "height": 1,
        "img": "systems/pf2e/icons/default-icons/hazard.svg",
        "name": "Ancient Summoning Rune",
        "width": 1
    },
    "type": "hazard"
}
