{
    "_id": "QibpLccM5bLUMopj",
    "content": "<h1>Lymnieris (The Auroral Tower) [LG]</h1><p><strong>Edicts</strong> Help others achieve their desires, aid and protect sex workers, help others through difficult transitions</p><p><strong>Anathema</strong> Persecute sex workers, force or support unwanted marriages</p><p><strong>Follower Alignments</strong> LG, NG, CG</span></p><p></span></p><h2>Devotee Benefits</h2><div><div><strong>Divine Ability</strong> Wisdom or Charisma</div><div><strong>Divine Font</strong> heal</div><div><strong>Divine Skill</strong> Society</div><div><strong>Favored Weapon</strong> longsword</div><div><strong>Domains</strong> change, passion, protection, repose</div><div><strong>Cleric Spells</strong> 1st: mage armor, 3rd: abyssal plague (threefold aspect), 4th: resilient sphere</div></div>",
    "flags": {},
    "name": "Lymnieris",
    "permission": {
        "default": 0
    }
}
