{
    "_id": "9eltBjLngkR9x1Xm",
    "content": "<h1>Trelmarixian (The Lysogenic Prince) [NE]</h1><p>Before his mortal death, Trelmarixian had already destroyed an entire world. Born a daemonic-blooded tiefling, his hatred of those around him was an all-consuming hunger, and he never knew peace. During an eclipse, he performed a ritual so powerful it mummified every living creature on his world, and his heart was finally full. Dying from starvation but elated by his success, Trelmarixian heard a voice call out to him. The voice mocked him, exclaiming all he'd accomplished was insignificant compared to what awaited him next. Trelmarixian's last mortal memory was of staring into an eclipse.</p><p>Lyutheria, the original Horseman of Famine, was impressed by Trelmarixian's conquest and took him on as her apprentice, fatally underestimating his ambitions. After Trelmarixian learned all he could from his master, he devoured her and assumed her title.</p><p>Trelmarixian appears as sickly man with three snapping jackal heads and putrid, membranous flesh that is constantly dripping and sloughing off his body. As the Horseman of Famine, Trelmarixian ushers in oblivion slowly, watching mortals waste away as their bodies turn against them. He spreads cancer by touch, inciting cells to rebellion, and his breath causes outbreaks of hives and asthma attacks in those nearby. He aligns himself with Szuriel to see that soldiers never make it home to reap their fields, leaving crops to rot on the vine. He collaborates with Apollyon to spread diseases from livestock, rendering butchers' larders barren. Trelmarixian has little trust for Charon, however, certain that the oldest Horseman is hiding secrets.</p><p><strong>Edicts</strong> End all mortal life through wasting consumption and starvation, violently consume matter and souls</p><p><strong>Anathema</strong> Kill or remove a parasite or tumor, grow food</p><p><strong>Areas of Concern</strong> famine</p><p><strong>Follower Alignments</strong> LE, NE, CE</span></p><h2>Devotee Benefits</h2><div><div><strong>Divine Ability</strong> Constitution or Wisdom</div><div><strong>Divine Font</strong> harm</div><div><strong>Divine Skill</strong> Nature</div><div><strong>Favored Weapon</strong> spiked gauntlet</div><div><strong>Domains</strong> decay, dust, earth, nightmares</div><div><strong>Cleric Spells</strong> 1st: grease, 2nd: feast of ashes, 5th: acid storm</div></div>",
    "flags": {},
    "name": "Trelmarixian",
    "permission": {
        "default": 0
    }
}
