{
    "_id": "0cbxczrql4MwAHwV",
    "content": "<p><strong>Deities</strong> @Compendium[pf2e.deities.Asmodeus]{Asmodeus}, @Compendium[pf2e.deities.Dwarven Pantheon]{Dwarven Pantheon}, @Compendium[pf2e.deities.Eritrice]{Eritrice}, @Compendium[pf2e.deities.Gruhastha]{Gruhastha}, @Compendium[pf2e.deities.Hastur]{Hastur}, @Compendium[pf2e.deities.Imot]{Imot}, @Compendium[pf2e.deities.Irez]{Irez}, @Compendium[pf2e.deities.Lady Jingxi]{Lady Jingxi}, @Compendium[pf2e.deities.Lissala]{Lissala}, @Compendium[pf2e.deities.Magdh]{Magdh}, @Compendium[pf2e.deities.Magrim]{Magrim}, @Compendium[pf2e.deities.Mephistopheles]{Mephistopheles}, @Compendium[pf2e.deities.Nalinivati]{Nalinivati}, @Compendium[pf2e.deities.Nethys]{Nethys}, @Compendium[pf2e.deities.Pillars of Knowledge]{Pillars of Knowledge}, @Compendium[pf2e.deities.Sivanah]{Sivanah}, @Compendium[pf2e.deities.Thoth]{Thoth}, @Compendium[pf2e.deities.Valmallos]{Valmallos}, @Compendium[pf2e.deities.Wards of the Pharaoh]{Wards of the Pharaoh}, @Compendium[pf2e.deities.Winlas]{Winlas}, @Compendium[pf2e.deities.Ydajisk]{Ydajisk}</p><p><strong>Domain Spell</strong> @Compendium[pf2e.spells-srd.Redact]{Redact}; <strong>Advanced Domain Spell</strong> @Compendium[pf2e.spells-srd.Ghostly Transcription]{Ghostly Transcription}</p><p>You wield power over written words and symbols.</p>",
    "flags": {},
    "name": "Glyph Domain",
    "permission": {
        "default": 0
    }
}
