{
    "_id": "xYx8UD0JnFyBHGhJ",
    "content": "<p><strong>Deities</strong> @Compendium[pf2e.deities.Angazhan]{Angazhan}, @Compendium[pf2e.deities.Arundhat]{Arundhat}, @Compendium[pf2e.deities.Barbatos]{Barbatos}, @Compendium[pf2e.deities.Bastet]{Bastet}, @Compendium[pf2e.deities.Cernunnos]{Cernunnos}, @Compendium[pf2e.deities.Chamidu]{Chamidu}, @Compendium[pf2e.deities.Cyth-V'sug]{Cyth-V'sug}, @Compendium[pf2e.deities.Daikitsu]{Daikitsu}, @Compendium[pf2e.deities.Elven Pantheon]{Elven Pantheon}, @Compendium[pf2e.deities.Erastil]{Erastil}, @Compendium[pf2e.deities.Gendowyn]{Gendowyn}, @Compendium[pf2e.deities.Gozreh]{Gozreh}, @Compendium[pf2e.deities.Green Man]{Green Man}, @Compendium[pf2e.deities.Gruhastha]{Gruhastha}, @Compendium[pf2e.deities.Halcamora]{Halcamora}, @Compendium[pf2e.deities.Jaidi]{Jaidi}, @Compendium[pf2e.deities.Ketephys]{Ketephys}, @Compendium[pf2e.deities.Lahkgya]{Lahkgya}, @Compendium[pf2e.deities.Lysianassa]{Lysianassa}, @Compendium[pf2e.deities.Matravash]{Matravash}, @Compendium[pf2e.deities.Mother Vulture]{Mother Vulture}, @Compendium[pf2e.deities.Nhimbaloth]{Nhimbaloth}, @Compendium[pf2e.deities.Osiris]{Osiris}, @Compendium[pf2e.deities.Ra]{Ra}, @Compendium[pf2e.deities.Selket]{Selket}, @Compendium[pf2e.deities.Stag Mother of the Forest of Stones]{Stag Mother of the Forest of Stones}, @Compendium[pf2e.deities.Sun Wukong]{Sun Wukong}, @Compendium[pf2e.deities.Tanagaar]{Tanagaar}, @Compendium[pf2e.deities.The Green Mother]{The Green Mother}, @Compendium[pf2e.deities.Treerazer]{Treerazer}, @Compendium[pf2e.deities.Xhamen-Dor]{Xhamen-Dor}, @Compendium[pf2e.deities.Ylimancha]{Ylimancha}, @Compendium[pf2e.deities.Zevgavizeb]{Zevgavizeb}</p><p><strong>Domain Spell</strong> @Compendium[pf2e.spells-srd.Vibrant Thorns]{Vibrant Thorns}; <strong>Advanced Domain Spell</strong> @Compendium[pf2e.spells-srd.Nature's Bounty]{Nature's Bounty}</p><p><span id=\"ctl00_MainContent_DetailedOutput\">You hold power over animals and plants.</span></p><p></p>",
    "flags": {},
    "name": "Nature Domain",
    "permission": {
        "default": 0
    }
}
