{
    "_id": "LoZY48txEgHZxewj",
    "data": {
        "actionCategory": {
            "value": ""
        },
        "actionType": {
            "value": "passive"
        },
        "actions": {
            "value": null
        },
        "description": {
            "value": "<p>Azaersi has granted you limited access to the Stone Roads, attuning you to the tiniest sliver of the Onyx Key. You gain <em>@Compendium[pf2e.spells-srd.Plane Shift]{Plane Shift}</em> as a primal innate spell. You can cast it twice per week. This can be used only to travel back and forth between the Plane of Earth and the Material Plane. Due to your attunement to the Onyx Key, you can act as the spell focus, and you do not require a tuning fork.</p>"
        },
        "featType": {
            "value": "ancestry"
        },
        "level": {
            "value": 17
        },
        "prerequisites": {
            "value": []
        },
        "rules": [],
        "source": {
            "value": ""
        },
        "traits": {
            "custom": "",
            "rarity": {
                "value": "rare"
            },
            "selected": {
                "hobgoblin": "Hobgoblin"
            },
            "value": [
                "hobgoblin"
            ]
        }
    },
    "effects": [],
    "flags": {},
    "img": "systems/pf2e/icons/features/feats/feats.webp",
    "name": "Azaersi's Roads",
    "type": "feat"
}
