{
    "_id": "Xjn4iYzJ6rLIpLV3",
    "data": {
        "actionCategory": {
            "value": ""
        },
        "actionType": {
            "value": "passive"
        },
        "actions": {
            "value": null
        },
        "description": {
            "value": "<p>When you cast shield, you can modify the spell to create a solid barrier you can use for cover, but not for blocking. You can't use the Shield Block reaction when the spell is modified in this way, but you (and only you) can spend an action to Take Cover to gain standard cover from it.</p>"
        },
        "featType": {
            "value": "archetype"
        },
        "level": {
            "value": 4
        },
        "location": "",
        "prerequisites": {
            "value": [
                {
                    "value": "Spell Trickster Dedication"
                },
                {
                    "value": "ability to cast shield"
                }
            ]
        },
        "rules": [],
        "source": {
            "value": ""
        },
        "traits": {
            "custom": "",
            "rarity": {
                "value": "common"
            },
            "value": [
                "archetype"
            ]
        }
    },
    "effects": [],
    "flags": {},
    "img": "systems/pf2e/icons/default-icons/feats.webp",
    "name": "Barrier Shield",
    "type": "feat"
}
