{
    "_id": "BuaOQzmRNgIhGsfN",
    "data": {
        "actionCategory": {
            "value": ""
        },
        "actionType": {
            "value": "passive"
        },
        "actions": {
            "value": null
        },
        "description": {
            "value": "<p>Your freshly spilled blood is sanctified, and ingesting it causes effects similar to those of @Compendium[pf2e.equipment-srd.Holy Water]{Holy Water}.</p>\n<p>Whenever a fiend, undead, or creature with a weakness to good damage drinks your blood or deals piercing or slashing damage to you with jaws, fangs, or a similar attack, that creature takes [[/r {1d6}[good]]]{1d6 good damage}.</p>\n<p>You gain a +4 circumstance bonus to Crafting checks to @Compendium[pf2e.actionspf2e.Craft]{Craft} @Compendium[pf2e.equipment-srd.Holy Water]{Holy Water} using your own blood as one of the ingredients.</p>"
        },
        "featType": {
            "value": "ancestry"
        },
        "level": {
            "value": 5
        },
        "location": "",
        "prerequisites": {
            "value": []
        },
        "rules": [
            {
                "key": "FlatModifier",
                "label": "Blessed Blood (craft Holy Water with own blood)",
                "predicate": {
                    "all": [
                        "action:craft",
                        "item:holy-water",
                        "own-blood"
                    ]
                },
                "selector": "craft",
                "type": "circumstance",
                "value": 4
            }
        ],
        "source": {
            "value": "Pathfinder Advanced Player's Guide"
        },
        "traits": {
            "custom": "",
            "rarity": {
                "value": "common"
            },
            "value": [
                "aasimar"
            ]
        }
    },
    "effects": [],
    "flags": {},
    "img": "systems/pf2e/icons/features/feats/feats.webp",
    "name": "Blessed Blood (Aasimar)",
    "type": "feat"
}
