{
    "_id": "xQuNswWB3eg1UM28",
    "data": {
        "actionCategory": {
            "value": ""
        },
        "actionType": {
            "value": "action"
        },
        "actions": {
            "value": 1
        },
        "description": {
            "value": "<p><strong>Frequency</strong> once per minute</p>\n<p><strong>Requirements</strong> You are in @Compendium[pf2e.feats-srd.Cobra Stance]{Cobra Stance}.</p>\n<hr />\n<p>You lash out with devious intent and the power to envenom your foe. Make a cobra fang Strike. Your reach with this Strike is 5 feet greater than normal.</p>\n<p>If this Strike hits, the target takes [[/r {1d4}[persistent,poison]]] @Compendium[pf2e.conditionitems.Persistent Damage]{Persistent Poison Damage} per weapon damage die.</p>\n<hr />\n<p><strong>Special</strong> If you have this feat, the circumstance bonus to Fortitude saves and Fortitude DC granted by Cobra Stance increases from +1 to +2.</p>\n<p>@Compendium[pf2e.feat-effects.Stance: Cobra Stance (Cobra Envenom)]{Stance: Cobra Stance (Cobra Envenom)}</p>"
        },
        "featType": {
            "value": "class"
        },
        "level": {
            "value": 10
        },
        "location": "",
        "prerequisites": {
            "value": [
                {
                    "value": "Cobra Stance"
                },
                {
                    "value": "expert in unarmed attacks"
                }
            ]
        },
        "rules": [],
        "source": {
            "value": "Pathfinder Advanced Player's Guide"
        },
        "traits": {
            "custom": "",
            "rarity": {
                "value": "common"
            },
            "value": [
                "monk",
                "poison"
            ]
        }
    },
    "effects": [],
    "flags": {},
    "img": "systems/pf2e/icons/features/feats/feats.webp",
    "name": "Cobra Envenom",
    "type": "feat"
}
