{
    "_id": "8C9qo5LL9J0UTNGc",
    "data": {
        "actionCategory": {
            "value": ""
        },
        "actionType": {
            "value": "action"
        },
        "actions": {
            "value": 1
        },
        "description": {
            "value": "<p>You use your performance to orchestrate an onslaught against your enemies. If your next action is to cast the <em>@Compendium[pf2e.spells-srd.Inspire Courage]{Inspire Courage}</em> composition cantrip, one ally who gains a status bonus from the spell can immediately use a reaction to Stride and then make a melee Strike.</p>"
        },
        "featType": {
            "value": "class"
        },
        "level": {
            "value": 16
        },
        "prerequisites": {
            "value": [
                {
                    "value": "Courageous Advance"
                },
                {
                    "value": "Courageous Assault"
                }
            ]
        },
        "rules": [],
        "source": {
            "value": "Pathfinder Advanced Player's Guide"
        },
        "traits": {
            "custom": "",
            "rarity": {
                "value": "common"
            },
            "value": [
                "auditory",
                "bard",
                "concentrate",
                "metamagic"
            ]
        }
    },
    "effects": [],
    "flags": {},
    "img": "systems/pf2e/icons/features/feats/feats.webp",
    "name": "Courageous Onslaught",
    "type": "feat"
}
