{
    "_id": "R7c4PyTNkZb0yvoT",
    "data": {
        "actionCategory": {
            "value": ""
        },
        "actionType": {
            "value": "action"
        },
        "actions": {
            "value": 1
        },
        "description": {
            "value": "<p>Putting on a grim face for the battle ahead, you encourage your allies to strike fear into their foes with vicious attacks.</p>\n<p>When you use this action, attempt an Intimidation check. The DC is usually a standard-difficulty DC of your level, but the GM can assign a different DC based on the circumstances. The effect depends on the result of your check.</p>\n<hr />\n<p><strong>Critical Success</strong> Your @Compendium[pf2e.feat-effects.Effect: Dread Marshal Stance]{Marshal's Aura} increases to a @Template[type:emanation|distance:20]{20-foot emanation}, and it grants you and allies a status bonus to damage rolls equal to the number of weapon damage dice of the unarmed attack or weapon you are wielding that has the most weapon damage dice. When you or an ally in the aura critically hits an enemy with a Strike, that enemy is @Compendium[pf2e.conditionitems.Frightened]{Frightened 1}.</p>\n<p><strong>Success</strong> As critical success, but your aura's size doesn't increase.</p>\n<p><strong>Failure</strong> You fail to enter the stance.</p>\n<p><strong>Critical Failure</strong> You fail to enter the stance and can't take this action again for 1 minute.</p>"
        },
        "featType": {
            "value": "archetype"
        },
        "level": {
            "value": 4
        },
        "location": "",
        "prerequisites": {
            "value": [
                {
                    "value": "Marshal Dedication"
                },
                {
                    "value": "trained in Intimidation"
                }
            ]
        },
        "rules": [],
        "source": {
            "value": "Pathfinder Advanced Player's Guide"
        },
        "traits": {
            "custom": "",
            "rarity": {
                "value": "common"
            },
            "value": [
                "archetype",
                "open",
                "stance"
            ]
        }
    },
    "effects": [],
    "flags": {},
    "img": "systems/pf2e/icons/features/feats/feats.webp",
    "name": "Dread Marshal Stance",
    "type": "feat"
}
