{
    "_id": "84n92oBsRVCxjifM",
    "data": {
        "actionCategory": {
            "value": ""
        },
        "actionType": {
            "value": "passive"
        },
        "actions": {
            "value": null
        },
        "description": {
            "value": "<p>You've adapted a wider array of spells to work with your attacks. Rather than needing to use a spell that has a spell attack roll for a Spellstrike, you can use a harmful spell that can target a creature or that has an area of a burst, cone, or line (abiding by any other restrictions of Spellstrike). When you Cast a Spell that doesn't have a spell attack roll as part of a Spellstrike, it works in the following ways.</p>\n<ul>\n<li>If your Strike critically fails, the spell is lost with no effect.</li>\n<li>Creatures use their normal defenses against the spell, such as saving throws.</li>\n<li>If the spell lets you select a number of targets, it instead targets only the creature you attacked with your Strike.</li>\n<li>If the spell has an area, the target must be in that area. A burst is centered on a corner of the target's square, or the square corner closest to the center of the target, if the target is Large or larger; you choose the corner if more than one is eligible. A cone or line emits from you and must include the target; if you're not adjacent to the target (using a reach weapon or starlit span, for example), choose any square adjacent to the target as the source. The spell affects all creatures in the area as normal, but the Strike still targets only one creature.</li>\n</ul>"
        },
        "featType": {
            "value": "class"
        },
        "level": {
            "value": 2
        },
        "location": "",
        "prerequisites": {
            "value": [
                {
                    "value": "Spellstrike"
                }
            ]
        },
        "rules": [],
        "source": {
            "value": ""
        },
        "traits": {
            "custom": "",
            "rarity": {
                "value": "common"
            },
            "value": [
                "magus"
            ]
        }
    },
    "effects": [],
    "flags": {},
    "img": "systems/pf2e/icons/features/feats/feats.webp",
    "name": "Expansive Spellstrike",
    "type": "feat"
}
