{
    "_id": "gTg3D9Dv9L4NEVhV",
    "data": {
        "actionCategory": {
            "value": "defensive"
        },
        "actionType": {
            "value": "reaction"
        },
        "actions": {
            "value": null
        },
        "description": {
            "value": "<p><strong>Frequency</strong> once per day</p>\n<p><strong>Trigger</strong> You roll a failure (but not a critical failure) on a Will save against a fear effect.</p>\n<hr />\n<p>The Gray Gardeners are known for having nerves of steel and an unbreakable resolve. When you would be overwhelmed by terror, you can draw upon this resolve to keep your composure and remain undaunted. You take mental damage equal to twice your level, and the saving throw is a success.</p>"
        },
        "featType": {
            "value": "archetype"
        },
        "level": {
            "value": 8
        },
        "location": "",
        "prerequisites": {
            "value": [
                {
                    "value": "Vigilante Dedication"
                },
                {
                    "value": "Member of the Grey Gardeners"
                }
            ]
        },
        "rules": [
            {
                "key": "Note",
                "outcome": [
                    "failure"
                ],
                "predicate": {
                    "all": [
                        "fear"
                    ]
                },
                "selector": "saving-throw",
                "text": "<p class='compact-text'><strong>Gardener's Resolve</strong> As a reaction, once per day you can take mental damage equal to twice your level, and the saving throw is a success.</p>"
            }
        ],
        "source": {
            "value": ""
        },
        "traits": {
            "custom": "",
            "rarity": {
                "value": "common"
            },
            "value": [
                "archetype",
                "vigilante"
            ]
        }
    },
    "effects": [],
    "flags": {},
    "img": "systems/pf2e/icons/default-icons/feats.webp",
    "name": "Gardener's Resolve",
    "type": "feat"
}
