{
    "_id": "PdQAAKtCW5dS9IYj",
    "data": {
        "actionCategory": {
            "value": ""
        },
        "actionType": {
            "value": "passive"
        },
        "actions": {
            "value": null
        },
        "description": {
            "value": "<p>While you're in Stoked Flame Stance, you have cold and fire resistance equal to half your level, and any creature that hits you with an unarmed attack, tries to Grab or Grapple you, or otherwise touches you takes fire damage equal to your Wisdom modifier (minimum 1). A creature can take this damage no more than once per turn.</p>"
        },
        "featType": {
            "value": "class"
        },
        "level": {
            "value": 6
        },
        "location": "",
        "prerequisites": {
            "value": [
                {
                    "value": "Stoked Flame Stance"
                }
            ]
        },
        "rules": [],
        "source": {
            "value": ""
        },
        "traits": {
            "custom": "",
            "rarity": {
                "value": "common"
            },
            "value": [
                "monk"
            ]
        }
    },
    "effects": [],
    "flags": {},
    "img": "systems/pf2e/icons/features/feats/feats.webp",
    "name": "Inner Fire (Monk)",
    "type": "feat"
}
