{
    "_id": "s97nKj9Uye1KXr7A",
    "data": {
        "actionCategory": {
            "value": "interaction"
        },
        "actionType": {
            "value": "action"
        },
        "actions": {
            "value": 3
        },
        "description": {
            "value": "<p>Your physical form can combine with that of your eidolon, granting benefits but limiting your capabilities.</p>\n<p>You Manifest your Eidolon, but instead of summoning it into an adjacent open space, you become it. While Manifested in this way, you use its statistics, and you can't act except to direct it to use Manifest an Eidolon to unmanifest it.</p>\n<p>Since you can't act, you can't Cast Spells, activate or benefit from magic items that normally benefit you and not your eidolon, perform actions that have the tandem trait, or use other abilities that require you, and not the eidolon, to act.</p>\n<p>You can't be separately targeted while you are melded into it. When you reach 0 HP, your eidolon unmanifests, leaving your body behind, unconscious and dying.</p>"
        },
        "featType": {
            "value": "class"
        },
        "level": {
            "value": 1
        },
        "location": "",
        "prerequisites": {
            "value": []
        },
        "rules": [],
        "source": {
            "value": ""
        },
        "traits": {
            "custom": "",
            "rarity": {
                "value": "common"
            },
            "value": [
                "summoner"
            ]
        }
    },
    "effects": [],
    "flags": {},
    "img": "systems/pf2e/icons/features/feats/feats.webp",
    "name": "Meld into Eidolon",
    "type": "feat"
}
