{
    "_id": "gxQheZ4xuDWwyzy4",
    "data": {
        "actionCategory": {
            "value": ""
        },
        "actionType": {
            "value": "passive"
        },
        "actions": {
            "value": null
        },
        "description": {
            "value": "<p>Your blood bears the mark of a demon, a living embodiment of sin from the fetid depths of the Abyss. Demonic power pulses through your veins and manifests in a different way for each pitborn, whether you have webbed fingers and thrive in the water, large hands capable of wrestling larger foes, or some other manifestation.</p>\n<p>You are trained in Athletics. If you were already trained in Athletics (from your background or class, for example), you instead become trained in a skill of your choice.</p>\n<p>You also gain any one common 1st-level skill feat with a prerequisite of trained in Athletics, as reflects the manifestation of your Abyssal blood.</p>\n<hr />\n<p><em>Note: If you are already trained in the skill provided by this feat, you need to manually select an alternative skill. You also need to manually enter the granted Lore skill.</em></p>"
        },
        "featType": {
            "value": "ancestry"
        },
        "level": {
            "value": 1
        },
        "location": "",
        "prerequisites": {
            "value": []
        },
        "rules": [
            {
                "key": "ActiveEffectLike",
                "mode": "upgrade",
                "path": "data.skills.ath.rank",
                "value": 1
            }
        ],
        "source": {
            "value": "Pathfinder Advanced Player's Guide"
        },
        "traits": {
            "custom": "",
            "rarity": {
                "value": "common"
            },
            "value": [
                "lineage",
                "tiefling"
            ]
        }
    },
    "effects": [],
    "flags": {},
    "img": "systems/pf2e/icons/features/feats/feats.webp",
    "name": "Pitborn",
    "type": "feat"
}
