{
    "_id": "GndRoEYD3uWjJji3",
    "data": {
        "actionCategory": {
            "value": ""
        },
        "actionType": {
            "value": "action"
        },
        "actions": {
            "value": 1
        },
        "description": {
            "value": "<p><strong>Frequency</strong> once per day</p>\n<hr />\n<p>You call on your celestial forebears to rid your body of all toxins and impurities. For each disease or poison currently affecting you, attempt a Religion check to counteract that disease or poison. As normal, your counteract level is equal to half your level, rounded up.</p>"
        },
        "featType": {
            "value": "ancestry"
        },
        "level": {
            "value": 13
        },
        "location": "",
        "prerequisites": {
            "value": []
        },
        "rules": [],
        "source": {
            "value": "Pathfinder Lost Omens: Ancestry Guide"
        },
        "traits": {
            "custom": "",
            "rarity": {
                "value": "common"
            },
            "value": [
                "healing"
            ]
        }
    },
    "effects": [],
    "flags": {},
    "img": "systems/pf2e/icons/features/feats/feats.webp",
    "name": "Purge Sins",
    "type": "feat"
}
