{
    "_id": "HvPvyeXM2iMK4OYf",
    "data": {
        "actionCategory": {
            "value": ""
        },
        "actionType": {
            "value": "passive"
        },
        "actions": {
            "value": null
        },
        "description": {
            "value": "<p>You become trained in the @Compendium[pf2e.equipment-srd.Repeating Hand Crossbow]{Repeating Hand Crossbow} and gain access to repeating hand crossbows and @Compendium[pf2e.equipment-srd.Shootist Bandolier]{Shootist Bandolier}. Whenever you gain a class feature that grants you expert or greater proficiency in a given weapon or weapons, you also gain that proficiency in the repeating hand crossbow. If you're at least an expert in a repeating hand crossbow you're using, you gain access to its critical specialization effect. You can perform the @Compendium[pf2e.actionspf2e.Shootist's Draw]{Shootist's Draw} action with repeating hand crossbows.</p>\n<p><strong>Special</strong> If you have the @Compendium[pf2e.feats-srd.Running Reload]{Running Reload} feat, you can reload a repeating hand crossbow @Compendium[pf2e.equipment-srd.Magazine with 5 Bolts]{Magazine} on the move. You can use Running Reload as a 3-action activity to reload a magazine into a repeating hand crossbow after you Stride, Step, or Sneak, or as a 2-action activity if you use a magazine from a shootist bandolier.</p>"
        },
        "featType": {
            "value": "archetype"
        },
        "level": {
            "value": 4
        },
        "location": "",
        "prerequisites": {
            "value": [
                {
                    "value": "Drow Shootist Dedication"
                }
            ]
        },
        "rules": [],
        "source": {
            "value": "Pathfinder #165: Eyes of Empty Death"
        },
        "traits": {
            "custom": "",
            "rarity": {
                "value": "common"
            },
            "value": [
                "archetype"
            ]
        }
    },
    "effects": [],
    "flags": {},
    "img": "systems/pf2e/icons/default-icons/feats.webp",
    "name": "Repeating Hand Crossbow Training",
    "type": "feat"
}
