{
    "_id": "WoUwDqhA6i6abwen",
    "data": {
        "actionCategory": {
            "value": "interaction"
        },
        "actionType": {
            "value": "action"
        },
        "actions": {
            "value": 2
        },
        "description": {
            "value": "<p>You instill great swiftness into your allies. You and all allies within 30 feet become @Compendium[pf2e.conditionitems.Quickened]{Quickened} for 1 minute and can use the additional action to Strike, Stride, or Step.</p>"
        },
        "featType": {
            "value": "archetype"
        },
        "level": {
            "value": 16
        },
        "location": "",
        "prerequisites": {
            "value": [
                {
                    "value": "Nantambu Chime-Ringer Dedication"
                }
            ]
        },
        "rules": [],
        "source": {
            "value": "Pathfinder #170: Spoken on the Song Wind"
        },
        "traits": {
            "custom": "",
            "rarity": {
                "value": "common"
            },
            "value": [
                "archetype",
                "auditory",
                "transmutation"
            ]
        }
    },
    "effects": [],
    "flags": {},
    "img": "systems/pf2e/icons/features/feats/feats.webp",
    "name": "Song of Grace and Speed",
    "type": "feat"
}
