{
    "_id": "z0HX5L7bOOrKi0dD",
    "data": {
        "actionCategory": {
            "value": ""
        },
        "actionType": {
            "value": "passive"
        },
        "actions": {
            "value": null
        },
        "description": {
            "value": "<p>You can craft tattoos, including magical tattoos. When you select this feat, you gain the formulas for four common magical tattoos of 2nd level or lower.</p>\n<p>You gain a +1 circumstance bonus to Crafting checks to Craft tattoos. If you're a master in Crafting, this bonus increases to +2.</p>"
        },
        "featType": {
            "value": "skill"
        },
        "level": {
            "value": 2
        },
        "location": "",
        "prerequisites": {
            "value": [
                {
                    "value": "trained in Crafting"
                }
            ]
        },
        "rules": [],
        "source": {
            "value": ""
        },
        "traits": {
            "custom": "",
            "rarity": {
                "value": "common"
            },
            "value": [
                "general",
                "skill"
            ]
        }
    },
    "effects": [],
    "flags": {},
    "img": "systems/pf2e/icons/features/feats/feats.webp",
    "name": "Tattoo Artist",
    "type": "feat"
}
