{
    "_id": "Rbp08BSSzwpkWVjh",
    "data": {
        "actionCategory": {
            "value": ""
        },
        "actionType": {
            "value": "free"
        },
        "actions": {
            "value": null
        },
        "description": {
            "value": "<p>You can erect a magical cowl that terrorizes your enemies. Once per day, you can cast <em>@Compendium[pf2e.spells-srd.Mask of Terror]{Mask of Terror}</em> as an innate occult spell, targeting yourself. If you critically hit a creature that's temporarily immune to the spell, the creature's temporary immunity ends.</p>"
        },
        "featType": {
            "value": "archetype"
        },
        "level": {
            "value": 18
        },
        "location": "",
        "prerequisites": {
            "value": [
                {
                    "value": "Vigilante Dedication"
                },
                {
                    "value": "Member of the Grey Gardeners"
                }
            ]
        },
        "rules": [],
        "source": {
            "value": ""
        },
        "traits": {
            "custom": "",
            "rarity": {
                "value": "common"
            },
            "value": [
                "archetype",
                "vigilante"
            ]
        }
    },
    "effects": [],
    "flags": {},
    "img": "systems/pf2e/icons/default-icons/feats.webp",
    "name": "Terrifying Countenance",
    "type": "feat"
}
