{
    "_id": "CL9pFxxMXqzIyg4j",
    "data": {
        "actionCategory": {
            "value": ""
        },
        "actionType": {
            "value": "passive"
        },
        "actions": {
            "value": null
        },
        "description": {
            "value": "<p>You learn a mystical stance that lets you attack from a distance. You gain the <em>@Compendium[pf2e.spells-srd.Wild Winds Stance]{Wild Winds Stance}</em> ki spell. Increase the number of Focus Points in your focus pool by 1.</p>\n<p>While entering the stance is a ki spell, the wind crash Strikes the stance grants are not, so you can use them as often as you like while in the stance.</p>"
        },
        "featType": {
            "value": "class"
        },
        "level": {
            "value": 8
        },
        "location": "",
        "prerequisites": {
            "value": [
                {
                    "value": "ki spells"
                }
            ]
        },
        "rules": [
            {
                "key": "ActiveEffectLike",
                "mode": "add",
                "path": "data.resources.focus.max",
                "value": 1
            }
        ],
        "source": {
            "value": "Pathfinder Core Rulebook"
        },
        "traits": {
            "custom": "",
            "rarity": {
                "value": "common"
            },
            "value": [
                "monk"
            ]
        }
    },
    "effects": [],
    "flags": {},
    "img": "systems/pf2e/icons/features/feats/feats.webp",
    "name": "Wild Winds Initiate",
    "type": "feat"
}
