{
    "_id": "kQfqJLpKOPORq7I6",
    "data": {
        "actionCategory": {
            "value": ""
        },
        "actionType": {
            "value": "passive"
        },
        "actions": {
            "value": null
        },
        "description": {
            "value": "<p><strong>Requirements</strong> You have a reaction available and aren't prevented from using @Compendium[pf2e.actionspf2e.Catharsis]{Catharsis}.</p>\n<hr />\n<p>You concentrate on your mental state, tapping into that raw emotional energy. Take your Catharsis reaction, causing the catharsis activation and entering your emotional fervor as normal. The fervor lasts only until the end of your turn. At the end of your emotional fervor, you experience the effects of your emotional fallout, as normal.</p>"
        },
        "featType": {
            "value": "archetype"
        },
        "level": {
            "value": 8
        },
        "location": "",
        "prerequisites": {
            "value": [
                {
                    "value": "Cathartic Mage Dedication"
                }
            ]
        },
        "rules": [],
        "source": {
            "value": ""
        },
        "traits": {
            "custom": "",
            "rarity": {
                "value": "common"
            },
            "value": [
                "archetype",
                "concentrate"
            ]
        }
    },
    "effects": [],
    "flags": {},
    "img": "systems/pf2e/icons/features/feats/feats.webp",
    "name": "Work Yourself Up",
    "type": "feat"
}
