{
    "_id": "fV0Xa1Bd3BoWACgT",
    "data": {
        "actionCategory": {
            "value": ""
        },
        "actionType": {
            "value": "passive"
        },
        "actions": {
            "value": null
        },
        "description": {
            "value": "<p>Irori grants you great insight and knowledge. Once, when you roll a failure at a check to @Compendium[pf2e.actionspf2e.Recall Knowledge (Lore)]{Recall Knowledge}, you get a critical success instead. Furthermore, the check loses the secret trait, so you know for sure that the result was a critical success. Irori typically grants this boon for an extremely consequential check to Recall Knowledge.</p>"
        },
        "featType": {
            "value": "deityboon"
        },
        "level": {
            "value": 0
        },
        "prerequisites": {
            "value": []
        },
        "rules": [],
        "source": {
            "value": ""
        },
        "traits": {
            "custom": "",
            "rarity": {
                "value": "common"
            },
            "value": []
        }
    },
    "effects": [],
    "flags": {},
    "img": "systems/pf2e/icons/deity/Irori.webp",
    "name": "Irori - Minor Boon",
    "type": "feat"
}
