{
    "_id": "jVeuBZsa4iFg0wC6",
    "data": {
        "actionCategory": {
            "value": ""
        },
        "actionType": {
            "value": "passive"
        },
        "actions": {
            "value": null
        },
        "description": {
            "value": "<p><strong>Minor Boon (Single Use)</strong> Nethys casts a powerful spell to help you in a pinch.</p>\n<p>Once, Nethys casts a spell 1 level higher than the highest-level spell you can cast. If you can't cast spells, Nethys casts a 1st-level spell to help you.</p>"
        },
        "featType": {
            "value": "deityboon"
        },
        "level": {
            "value": 0
        },
        "prerequisites": {
            "value": []
        },
        "rules": [],
        "source": {
            "value": ""
        },
        "traits": {
            "custom": "",
            "rarity": {
                "value": "common"
            },
            "value": []
        }
    },
    "effects": [],
    "flags": {},
    "img": "systems/pf2e/icons/deity/Nethys.webp",
    "name": "Nethys - Minor Boon",
    "type": "feat"
}
