{
    "_id": "db9lXpF4OsPz9cXL",
    "data": {
        "description": {
            "value": "<p>Granted by <em>@Compendium[pf2e.spells-srd.Energy Absorption]{Energy Absorption}</em></p>"
        },
        "duration": {
            "expiry": "turn-start",
            "sustained": false,
            "unit": "rounds",
            "value": 0
        },
        "level": {
            "value": 4
        },
        "rules": [
            {
                "key": "Resistance",
                "type": "fire",
                "value": "5*(@item.level - 1)"
            }
        ],
        "source": {
            "value": "Pathfinder Core Rulebook"
        },
        "start": {
            "initiative": null,
            "value": 0
        },
        "target": null,
        "tokenIcon": {
            "show": true
        },
        "traits": {
            "custom": "",
            "rarity": {
                "value": "common"
            },
            "value": []
        }
    },
    "effects": [],
    "flags": {},
    "img": "systems/pf2e/icons/spells/energy-absorption.webp",
    "name": "Spell Effect: Energy Absorption (Fire)",
    "type": "effect"
}
