{
    "_id": "zdpTPf157rXl3tEJ",
    "data": {
        "description": {
            "value": "<p>If its claw attack already had the versatile (piercing) trait, it gains the deadly 1d8 trait.</p>"
        },
        "duration": {
            "expiry": "turn-start",
            "sustained": true,
            "unit": "minutes",
            "value": 1
        },
        "level": {
            "value": 2
        },
        "rules": [
            {
                "critical": "true",
                "damageType": "slashing",
                "diceNumber": 1,
                "dieSize": "d8",
                "key": "DamageDice",
                "selector": "damage",
                "traits": [
                    "deadly-d8"
                ]
            }
        ],
        "source": {
            "value": "Pathfinder #171: Hurricane's Howl"
        },
        "start": {
            "initiative": null,
            "value": 0
        },
        "target": null,
        "tokenIcon": {
            "show": true
        },
        "traits": {
            "custom": "",
            "rarity": {
                "value": "common"
            },
            "value": []
        }
    },
    "effects": [],
    "flags": {},
    "img": "systems/pf2e/icons/default-icons/effect.svg",
    "name": "Spell Effect: Clawsong (Deadly D8)",
    "type": "effect"
}
