{
    "_id": "CTKAJG7oQaIQWCiB",
    "data": {
        "attributes": {
            "ac": {
                "value": 21
            },
            "hardness": 5,
            "hasHealth": true,
            "hp": {
                "details": "",
                "max": 30,
                "temp": 0,
                "tempmax": 0,
                "value": 30
            },
            "stealth": {
                "details": "<p>(trained)</p>",
                "value": 8
            }
        },
        "creatureType": "",
        "details": {
            "description": "<p>A hollow statue filled with explosives is connected to a trip wire running along the adjacent door.</p>",
            "disable": "<p>DC 21 Thievery (trained) to safely cut the wire</p>",
            "isComplex": false,
            "level": {
                "value": 2
            },
            "reset": "",
            "routine": ""
        },
        "saves": {
            "fortitude": {
                "saveDetail": "",
                "value": 6
            },
            "reflex": {
                "saveDetail": "",
                "value": 12
            },
            "will": {
                "saveDetail": "",
                "value": 0
            }
        },
        "source": {
            "value": "Pathfinder #157: Devil at the Dreaming Palace"
        },
        "statusEffects": [],
        "traits": {
            "ci": [],
            "di": {
                "custom": "",
                "selected": {},
                "value": [
                    "precision",
                    "critical-hits",
                    "object-immunities"
                ]
            },
            "dr": [],
            "dv": [],
            "rarity": {
                "value": "common"
            },
            "size": {
                "value": "med"
            },
            "traits": {
                "custom": "",
                "value": [
                    "mechanical",
                    "trap"
                ]
            }
        }
    },
    "effects": [],
    "flags": {},
    "img": "systems/pf2e/icons/default-icons/hazard.svg",
    "items": [
        {
            "_id": "KRYmDgL0v3sgSPhE",
            "data": {
                "actionCategory": {
                    "value": ""
                },
                "actionType": {
                    "value": "reaction"
                },
                "actions": {
                    "value": null
                },
                "description": {
                    "value": "<p data-visibility=\"gm\"><strong>Trigger</strong> A creature opens the northern door without first disabling the trip wire</p>\n<p><strong>Effect</strong> The statue explodes, spraying shrapnel to the west in a 5-foot cone and dealing [[/r {1d10+7}[piercing]]]{1d10+7 piercing} and [[/r {1d10}[fire]]]{1d10 fire damage} to all creatures in the affected area (<span data-pf2-check=\"reflex\" data-pf2-dc=\"18\" data-pf2-traits=\"damaging-effect\" data-pf2-label=\"Explosion DC\" data-pf2-show-dc=\"gm\">basic Reflex</span> save).</p>"
                },
                "requirements": {
                    "value": ""
                },
                "rules": [],
                "slug": null,
                "source": {
                    "value": ""
                },
                "traits": {
                    "custom": "",
                    "rarity": {
                        "value": "common"
                    },
                    "selected": {},
                    "value": []
                },
                "trigger": {
                    "value": ""
                },
                "weapon": {
                    "value": ""
                }
            },
            "effects": [],
            "flags": {},
            "img": "systems/pf2e/icons/actions/Reaction.webp",
            "name": "Explosion",
            "sort": 100000,
            "type": "action"
        }
    ],
    "name": "Exploding Statue",
    "token": {
        "disposition": 0,
        "height": 1,
        "img": "systems/pf2e/icons/default-icons/hazard.svg",
        "name": "Exploding Statue",
        "width": 1
    },
    "type": "hazard"
}
