{
    "_id": "M89l9FOnjHe63wD7",
    "data": {
        "actionCategory": {
            "value": ""
        },
        "actionType": {
            "value": "passive"
        },
        "actions": {
            "value": null
        },
        "description": {
            "value": "<p>During your studies to become a full-fledged wizard, you produced a thesis of unique magical research on one of a variety of topics. You gain a special benefit depending on the topic of your thesis research. The arcane thesis topics presented in this book are below; your specific thesis probably has a much longer and more technical title like \"On the Methods of Spell Interpolation and the Genesis of a New Understanding of the Building Blocks of Magic.\"</p>"
        },
        "featType": {
            "value": "classfeature"
        },
        "level": {
            "value": 1
        },
        "location": "",
        "prerequisites": {
            "value": []
        },
        "rules": [
            {
                "adjustName": false,
                "allowedDrops": {
                    "all": [
                        "item:trait:wizard",
                        "item:level:1"
                    ],
                    "label": "level 1 Wizard feature"
                },
                "choices": [
                    {
                        "value": "Compendium.pf2e.classfeatures.SNZ46g3u7U6x0XJj"
                    },
                    {
                        "value": "Compendium.pf2e.classfeatures.89zWKD2CN7nRu2xp"
                    },
                    {
                        "value": "Compendium.pf2e.classfeatures.OAcxS625AXSGrQIC"
                    },
                    {
                        "value": "Compendium.pf2e.classfeatures.QzWXMCSGNfvvpYgF"
                    },
                    {
                        "value": "Compendium.pf2e.classfeatures.Klb35AwlkNrq1gpB"
                    }
                ],
                "key": "ChoiceSet",
                "prompt": "Select an Arcane Thesis."
            },
            {
                "key": "GrantItem",
                "replaceSelf": true,
                "uuid": "{item|flags.pf2e.rulesSelections.arcaneThesis}"
            }
        ],
        "source": {
            "value": "Pathfinder Core Rulebook"
        },
        "traits": {
            "custom": "",
            "rarity": {
                "value": "common"
            },
            "value": [
                "wizard"
            ]
        }
    },
    "effects": [],
    "flags": {},
    "img": "systems/pf2e/icons/features/classes/arcane-thesis.webp",
    "name": "Arcane Thesis",
    "type": "feat"
}
