{
    "_id": "skQBrwRwJW2K6ACj",
    "data": {
        "actionCategory": {
            "value": ""
        },
        "actionType": {
            "value": "passive"
        },
        "actions": {
            "value": null
        },
        "description": {
            "value": "<p>Your connection with your eidolon strengthens, granting your eidolon access to a new ability depending on its type, as described in Eidolon Abilities in each eidolon's entry.</p>"
        },
        "featType": {
            "value": "classfeature"
        },
        "level": {
            "value": 7
        },
        "location": "",
        "prerequisites": {
            "value": []
        },
        "rules": [],
        "source": {
            "value": ""
        },
        "traits": {
            "custom": "",
            "rarity": {
                "value": "common"
            },
            "value": [
                "summoner"
            ]
        }
    },
    "effects": [],
    "flags": {},
    "img": "systems/pf2e/icons/features/classes/eidolon-symbiosis.webp",
    "name": "Eidolon Symbiosis",
    "type": "feat"
}
