{
    "_id": "vWZaLE2fEKMBw3D5",
    "data": {
        "actionCategory": {
            "value": ""
        },
        "actionType": {
            "value": "passive"
        },
        "actions": {
            "value": null
        },
        "description": {
            "value": "<h2 class=\"title\">Masterful Hunter Upgrade<span style=\"float: right;\">Level 17</span></h2>\n<p>Your mastery of skills allows you to overwhelm your prey. If you have master proficiency in Deception, Intimidation, Stealth, or the skill you use to Recall Knowledge about your prey, increase the circumstance bonus against the prey with that skill from +2 to +4.</p>\n<p>If you have master proficiency with your armor, increase the circumstance bonus to AC against the prey from +1 to +2.</p>\n<hr />\n<p><em>Automation Notes:</em> The bonus to recall knowledge has been set up for arcana, crafting, nature, occultism, religion, and society only. The bonus to AC is based on your unarmored proficiency, and not on the proficiency of the armor you're wearing.</p>"
        },
        "featType": {
            "value": "classfeature"
        },
        "level": {
            "value": 17
        },
        "location": "",
        "prerequisites": {
            "value": [
                {
                    "value": "Hunter's Edge: Outwit"
                }
            ]
        },
        "rules": [
            {
                "key": "FlatModifier",
                "label": "Vs. attacks from hunted prey (Masterful Hunter)",
                "predicate": {
                    "all": [
                        "hunted-prey"
                    ]
                },
                "selector": "ac",
                "type": "circumstance",
                "value": {
                    "brackets": [
                        {
                            "end": 4,
                            "start": 3,
                            "value": 2
                        },
                        {
                            "end": 2,
                            "start": 1,
                            "value": 1
                        }
                    ],
                    "field": "actor|data.martial.unarmored.rank"
                }
            },
            {
                "key": "FlatModifier",
                "label": "Vs. hunted prey (Masterful Hunter)",
                "predicate": {
                    "all": [
                        "hunted-prey"
                    ]
                },
                "selector": "deception",
                "type": "circumstance",
                "value": {
                    "brackets": [
                        {
                            "end": 4,
                            "start": 3,
                            "value": 4
                        },
                        {
                            "end": 2,
                            "start": 1,
                            "value": 2
                        }
                    ],
                    "field": "actor|data.skills.dec.rank"
                }
            },
            {
                "key": "FlatModifier",
                "label": "Vs. hunted prey (Masterful Hunter)",
                "predicate": {
                    "all": [
                        "hunted-prey"
                    ]
                },
                "selector": "intimidation",
                "type": "circumstance",
                "value": {
                    "brackets": [
                        {
                            "end": 4,
                            "start": 3,
                            "value": 4
                        },
                        {
                            "end": 2,
                            "start": 1,
                            "value": 2
                        }
                    ],
                    "field": "actor|data.skills.itm.rank"
                }
            },
            {
                "key": "FlatModifier",
                "label": "Vs. hunted prey (Masterful Hunter)",
                "predicate": {
                    "all": [
                        "hunted-prey"
                    ]
                },
                "selector": "stealth",
                "type": "circumstance",
                "value": {
                    "brackets": [
                        {
                            "end": 4,
                            "start": 3,
                            "value": 4
                        },
                        {
                            "end": 2,
                            "start": 1,
                            "value": 2
                        }
                    ],
                    "field": "actor|data.skills.ste.rank"
                }
            },
            {
                "key": "FlatModifier",
                "label": "Recall knowledge on hunted prey (Masterful Hunter)",
                "predicate": {
                    "all": [
                        "hunted-prey",
                        "action:recall-knowledge"
                    ]
                },
                "selector": "arcana",
                "type": "circumstance",
                "value": {
                    "brackets": [
                        {
                            "end": 4,
                            "start": 3,
                            "value": 4
                        },
                        {
                            "end": 2,
                            "start": 1,
                            "value": 2
                        }
                    ],
                    "field": "actor|data.skills.arc.rank"
                }
            },
            {
                "key": "FlatModifier",
                "label": "Recall knowledge on hunted prey (Masterful Hunter)",
                "predicate": {
                    "all": [
                        "hunted-prey",
                        "action:recall-knowledge"
                    ]
                },
                "selector": "religion",
                "type": "circumstance",
                "value": {
                    "brackets": [
                        {
                            "end": 4,
                            "start": 3,
                            "value": 4
                        },
                        {
                            "end": 2,
                            "start": 1,
                            "value": 2
                        }
                    ],
                    "field": "actor|data.skills.rel.rank"
                }
            },
            {
                "key": "FlatModifier",
                "label": "Recall knowledge on hunted prey (Masterful Hunter)",
                "predicate": {
                    "all": [
                        "hunted-prey",
                        "action:recall-knowledge"
                    ]
                },
                "selector": "nature",
                "type": "circumstance",
                "value": {
                    "brackets": [
                        {
                            "end": 4,
                            "start": 3,
                            "value": 4
                        },
                        {
                            "end": 2,
                            "start": 1,
                            "value": 2
                        }
                    ],
                    "field": "actor|data.skills.nat.rank"
                }
            },
            {
                "key": "FlatModifier",
                "label": "Recall knowledge on hunted prey (Masterful Hunter)",
                "predicate": {
                    "all": [
                        "hunted-prey",
                        "action:recall-knowledge"
                    ]
                },
                "selector": "occultism",
                "type": "circumstance",
                "value": {
                    "brackets": [
                        {
                            "end": 4,
                            "start": 3,
                            "value": 4
                        },
                        {
                            "end": 2,
                            "start": 1,
                            "value": 2
                        }
                    ],
                    "field": "actor|data.skills.occ.rank"
                }
            },
            {
                "key": "FlatModifier",
                "label": "Recall knowledge on hunted prey (Masterful Hunter)",
                "predicate": {
                    "all": [
                        "hunted-prey",
                        "action:recall-knowledge"
                    ]
                },
                "selector": "crafting",
                "type": "circumstance",
                "value": {
                    "brackets": [
                        {
                            "end": 4,
                            "start": 3,
                            "value": 4
                        },
                        {
                            "end": 2,
                            "start": 1,
                            "value": 2
                        }
                    ],
                    "field": "actor|data.skills.cra.rank"
                }
            },
            {
                "key": "FlatModifier",
                "label": "Recall knowledge on hunted prey (Masterful Hunter)",
                "predicate": {
                    "all": [
                        "hunted-prey",
                        "action:recall-knowledge"
                    ]
                },
                "selector": "society",
                "type": "circumstance",
                "value": {
                    "brackets": [
                        {
                            "end": 4,
                            "start": 3,
                            "value": 4
                        },
                        {
                            "end": 2,
                            "start": 1,
                            "value": 2
                        }
                    ],
                    "field": "actor|data.skills.soc.rank"
                }
            }
        ],
        "source": {
            "value": "Pathfinder Core Rulebook"
        },
        "traits": {
            "custom": "",
            "rarity": {
                "value": "common"
            },
            "value": [
                "ranger"
            ]
        }
    },
    "effects": [],
    "flags": {},
    "img": "systems/pf2e/icons/features/classes/outwit.webp",
    "name": "Masterful Hunter (Outwit)",
    "type": "feat"
}
