{
    "_id": "MGn2wezOr3VAdO3U",
    "data": {
        "actionCategory": {
            "value": ""
        },
        "actionType": {
            "value": "passive"
        },
        "actions": {
            "value": null
        },
        "description": {
            "value": "<p>Your perpetual infusions improve, allowing you to use @Compendium[pf2e.classfeatures.Quick Alchemy]{Quick Alchemy} to create more powerful items with no cost. The items you can select depend on your research field and must be in your formula book.</p>"
        },
        "featType": {
            "value": "classfeature"
        },
        "level": {
            "value": 11
        },
        "location": "",
        "prerequisites": {
            "value": []
        },
        "rules": [
            {
                "key": "GrantItem",
                "predicate": {
                    "all": [
                        "self:feature:bomber"
                    ]
                },
                "replaceSelf": true,
                "uuid": "Compendium.pf2e.classfeatures.8rEVg03QJ71ic3PP"
            },
            {
                "key": "GrantItem",
                "predicate": {
                    "all": [
                        "self:feature:chirurgeon"
                    ]
                },
                "replaceSelf": true,
                "uuid": "Compendium.pf2e.classfeatures.VS5vkqUQu4n7E28Y"
            },
            {
                "key": "GrantItem",
                "predicate": {
                    "all": [
                        "self:feature:mutagenist"
                    ]
                },
                "replaceSelf": true,
                "uuid": "Compendium.pf2e.classfeatures.mZFqRLYOQEqKA8ri"
            },
            {
                "key": "GrantItem",
                "predicate": {
                    "all": [
                        "self:feature:toxicologist"
                    ]
                },
                "replaceSelf": true,
                "uuid": "Compendium.pf2e.classfeatures.JOdbVu14phvdjhaY"
            }
        ],
        "source": {
            "value": "Pathfinder Core Rulebook"
        },
        "traits": {
            "custom": "",
            "rarity": {
                "value": "common"
            },
            "value": [
                "alchemist"
            ]
        }
    },
    "effects": [],
    "flags": {},
    "img": "systems/pf2e/icons/features/classes/choice-feature.webp",
    "name": "Perpetual Potency",
    "type": "feat"
}
