{
    "_id": "ejmSQOJR5lJv1pzh",
    "data": {
        "actionCategory": {
            "value": ""
        },
        "actionType": {
            "value": "passive"
        },
        "actions": {
            "value": null
        },
        "description": {
            "value": "<p>Your patron is one of sigils and symbols, tomes and texts, words and wisdom.</p>\n<p><strong>Spell List</strong> arcane</p>\n<p><strong>Patron Skill</strong> Arcana</p>\n<p><strong>Hex Cantrip</strong> <em>@Compendium[pf2e.spells-srd.Discern Secrets]{Discern Secrets}</em></p>\n<p><strong>Granted Spell</strong> <em>@Compendium[pf2e.spells-srd.Magic Weapon]{Magic Weapon}</em></p>"
        },
        "featType": {
            "value": "classfeature"
        },
        "level": {
            "value": 1
        },
        "location": "",
        "prerequisites": {
            "value": []
        },
        "rules": [
            {
                "key": "ActiveEffectLike",
                "mode": "upgrade",
                "path": "data.skills.arc.rank",
                "value": 1
            },
            {
                "key": "ActiveEffectLike",
                "mode": "override",
                "path": "data.proficiencies.aliases.witch",
                "priority": 39,
                "value": "arcane"
            }
        ],
        "source": {
            "value": "Pathfinder Advanced Player's Guide"
        },
        "traits": {
            "custom": "",
            "rarity": {
                "value": "common"
            },
            "value": [
                "witch"
            ]
        }
    },
    "effects": [],
    "flags": {},
    "img": "systems/pf2e/icons/features/classes/rune-patron.webp",
    "name": "Rune Patron",
    "type": "feat"
}
