{
    "_id": "YADSROPDxyIPYg5L",
    "data": {
        "attributes": {
            "ac": {
                "value": 10
            },
            "hardness": 0,
            "hasHealth": false,
            "hp": {
                "details": "",
                "max": 0,
                "temp": 0,
                "value": 0
            },
            "stealth": {
                "details": "<p>(master)</p>",
                "value": 25
            }
        },
        "creatureType": "",
        "details": {
            "description": "<p>The stairs collapse into a downward spiral.</p>",
            "disable": "<p><span data-pf2-check=\"thievery\" data-pf2-dc=\"35\" data-pf2-traits=\"mechanical,trap,hazard\" data-pf2-label=\"Decouple Mechanisms DC\" data-pf2-show-dc=\"gm\">Thievery</span> (master) to decouple several mechanisms barely accessible through gaps between the shifting risers, or <span data-pf2-check=\"perception\" data-pf2-dc=\"38\" data-pf2-traits=\"Note Stairs Wear Patterns DC\" data-pf2-label=\"mechanical,trap,hazard\" data-pf2-show-dc=\"gm\">Perception</span> to note which stairs have slightly different wear patterns to know which ones are safe to step on</p>",
            "isComplex": false,
            "level": {
                "value": 12
            },
            "reset": "<p>The flensing chute resets automatically.</p>",
            "routine": ""
        },
        "saves": {
            "fortitude": {
                "saveDetail": "",
                "value": 0
            },
            "reflex": {
                "saveDetail": "",
                "value": 0
            },
            "will": {
                "saveDetail": "",
                "value": 0
            }
        },
        "source": {
            "value": "Pathfinder #173: Doorway to the Red Star"
        },
        "statusEffects": [],
        "traits": {
            "ci": [],
            "di": {
                "custom": "",
                "selected": {},
                "value": []
            },
            "dr": [],
            "dv": [],
            "rarity": {
                "value": "uncommon"
            },
            "size": {
                "value": "med"
            },
            "traits": {
                "custom": "",
                "value": [
                    "mechanical",
                    "trap"
                ]
            }
        }
    },
    "effects": [],
    "flags": {},
    "img": "systems/pf2e/icons/default-icons/hazard.svg",
    "items": [
        {
            "_id": "8wo2sxo2islnaaql",
            "data": {
                "actionCategory": {
                    "value": "offensive"
                },
                "actionType": {
                    "value": "reaction"
                },
                "actions": {
                    "value": null
                },
                "description": {
                    "value": "<p data-visibility=\"gm\"><strong>Trigger</strong> A Small or larger creature approaches within 20 feet of the top of the stairs</p>\n<p><strong>Reaction</strong> The stair risers shift downward, forming a steep ramp while exposing lines of razor‑sharp blades.</p>\n<p>All creatures on the stairs must succeed at a <span data-pf2-check=\"reflex\" data-pf2-traits=\"mechanical,trap,hazard,damaging-effect\" data-pf2-label=\"Change to Chute DC DC\" data-pf2-dc=\"32\" data-pf2-show-dc=\"gm\">Reflex</span> save or tumble down the chute, taking [[/r {2d6}[bludgeoning]+{4d12+26}[slashing]]]{2d6 bludgeoning damage + 4d12+26 slashing damage}, and landing @Compendium[pf2e.conditionitems.Prone]{Prone} in area <strong>A4</strong>.</p>"
                },
                "requirements": {
                    "value": ""
                },
                "rules": [],
                "slug": null,
                "source": {
                    "value": ""
                },
                "traits": {
                    "custom": "",
                    "rarity": {
                        "value": "common"
                    },
                    "value": []
                },
                "trigger": {
                    "value": ""
                }
            },
            "effects": [],
            "flags": {},
            "img": "systems/pf2e/icons/actions/Reaction.webp",
            "name": "Change to Chute",
            "sort": 0,
            "type": "action"
        }
    ],
    "name": "Flensing Chute",
    "token": {
        "disposition": 0,
        "height": 1,
        "img": "systems/pf2e/icons/default-icons/npc.svg",
        "name": "Flensing Chute",
        "width": 1
    },
    "type": "hazard"
}
