{
    "_id": "DaOSfNGARU0QeMsp",
    "data": {
        "attributes": {
            "ac": {
                "check": 0,
                "details": "",
                "value": 34
            },
            "collisionDC": {
                "value": 30
            },
            "collisionDamage": {
                "value": "10d6 bludgeoning and 6d6 fire"
            },
            "hardness": 20,
            "hp": {
                "brokenThreshold": 5,
                "details": "",
                "max": 170,
                "temp": 0,
                "value": 170
            }
        },
        "details": {
            "AC": 0,
            "crew": "1 pilot",
            "description": "",
            "level": {
                "value": 15
            },
            "passengers": "1",
            "pilotingCheck": "Driving Lore (DC 30), Crafting (DC 35), or Arcana (DC 36)",
            "price": 18500,
            "space": {
                "high": 5,
                "long": 10,
                "wide": 5
            },
            "speed": "90 feet (thasteron)"
        },
        "saves": {
            "fortitude": {
                "item": 0,
                "rank": 0,
                "saveDetail": "",
                "value": 24
            }
        },
        "source": {
            "value": ""
        },
        "traits": {
            "ci": [],
            "di": {
                "custom": "",
                "value": [
                    "object-immunities"
                ]
            },
            "dr": [],
            "dv": [],
            "rarity": {
                "value": "uncommon"
            },
            "size": {
                "value": "lg"
            },
            "traits": {
                "custom": "",
                "value": [
                    "magical"
                ]
            }
        }
    },
    "effects": [],
    "flags": {},
    "img": "systems/pf2e/icons/default-icons/vehicle.svg",
    "items": [],
    "name": "Sand Racer",
    "token": {
        "disposition": 0,
        "height": 2,
        "img": "systems/pf2e/icons/default-icons/vehicle.svg",
        "name": "Sand Racer",
        "width": 1
    },
    "type": "vehicle"
}
