{
    "_id": "hoR6w8BqX2F35Tdx",
    "data": {
        "ability": {
            "value": ""
        },
        "area": {
            "value": ""
        },
        "areasize": {
            "value": ""
        },
        "category": {
            "value": "spell"
        },
        "components": {
            "material": false,
            "somatic": true,
            "verbal": true
        },
        "cost": {
            "value": ""
        },
        "damage": {
            "value": {
                "0": {
                    "type": {
                        "categories": [],
                        "value": "fire"
                    },
                    "value": "2d6 persistent"
                }
            }
        },
        "description": {
            "value": "<p>A heap of insults and invectives spew from your mouth-words so devastating your foes burn from the intensity of your diatribe. Your words deal [[/r {2d6}[persistent,fire]]] @Compendium[pf2e.conditionitems.Persistent Damage]{Persistent Fire Damage}, and the target must attempt a Will save. If the target doesn't understand the language or you're not speaking a language, it gains a +4 circumstance bonus to its save.</p>\n<hr />\n<p><strong>Critical Success</strong> The target is unaffected.</p>\n<p><strong>Success</strong> The target takes half the persistent fire damage.</p>\n<p><strong>Failure</strong> The target becomes @Compendium[pf2e.conditionitems.Frightened]{Frightened 1} and takes the full persistent fire damage.</p>\n<p><strong>Critical Failure</strong> The target becomes @Compendium[pf2e.conditionitems.Frightened]{Frightened 2} and takes double the persistent fire damage.</p>\n<hr />\n<p><strong>Heightened (+2)</strong> You can target two additional creatures, and the persistent damage increases by [[/r 2d6]].</p>"
        },
        "duration": {
            "value": ""
        },
        "hasCounteractCheck": {
            "value": false
        },
        "level": {
            "value": 2
        },
        "location": {
            "value": ""
        },
        "materials": {
            "value": ""
        },
        "prepared": {
            "value": false
        },
        "primarycheck": {
            "value": ""
        },
        "range": {
            "value": "30 feet"
        },
        "rules": [],
        "save": {
            "basic": "",
            "value": "will"
        },
        "scaling": {
            "damage": {
                "0": "2d6"
            },
            "interval": 2
        },
        "school": {
            "value": "enchantment"
        },
        "secondarycasters": {
            "value": ""
        },
        "secondarycheck": {
            "value": ""
        },
        "source": {
            "value": "Pathfinder Advanced Player's Guide"
        },
        "spellType": {
            "value": "save"
        },
        "sustained": {
            "value": false
        },
        "target": {
            "value": "1 creature (Heightened (+2) - two additional creatures)"
        },
        "time": {
            "value": "2"
        },
        "traditions": {
            "value": [
                "occult"
            ]
        },
        "traits": {
            "custom": "",
            "rarity": {
                "value": "common"
            },
            "value": [
                "auditory",
                "emotion",
                "fear",
                "mental"
            ]
        }
    },
    "effects": [],
    "flags": {},
    "img": "systems/pf2e/icons/spells/blistering-invective.webp",
    "name": "Blistering Invective",
    "type": "spell"
}
