{
    "_id": "oahqARSgOGDRybBQ",
    "data": {
        "ability": {
            "value": ""
        },
        "area": {
            "areaType": "emanation",
            "value": 5
        },
        "areasize": {
            "value": "5-foot emanation"
        },
        "category": {
            "value": "spell"
        },
        "components": {
            "material": false,
            "somatic": true,
            "verbal": true
        },
        "cost": {
            "value": ""
        },
        "damage": {
            "value": {}
        },
        "description": {
            "value": "<p>You whip up a small sandstorm around your body. When a creature starts its turn in the area or moves into the area, it must succeed at a Fortitude save or become dazzled for as long as it remains in the area; it is then temporarily immune to this dazzling effect for 10 minutes.</p>\n<p>Choose one of the following additional effects when you cast this spell. On subsequent rounds, you can switch to a different effect once per round as a free action triggered by sustaining the spell.</p>\n<ul>\n<li><strong>Sand Shield</strong> You create a magical shield made of sand. The sand shield provides no benefit to AC, but it does allow you to use the @Compendium[pf2e.feats-srd.Shield Block]{Shield Block} reaction and acts as a shield for this purpose. The sand shield has Hardness 14, 21 Hit Points, and no Broken Threshold; when the shield's HP are reduced to 0, you can't use its Shield Block reaction again until the next time you Sustain the Spell and choose the sand shield effect.</li>\n<li><strong>Sandblast</strong> You direct a jet of sand at a single target. One creature of your choice within 30 feet takes 8d6 slashing damage (basic Reflex save). On a critical failure, the creature is also @Compendium[pf2e.conditionitems.Dazzled]{Dazzled} for 1 minute.</li>\n<li><strong>Sandstorm</strong> The area of the spell expands to a 30-foot emanation, and any creature that starts its turn in the area or moves into the area takes 6d4 slashing damage (basic Reflex save) and must hold its breath or begin suffocating.</li>\n</ul>"
        },
        "duration": {
            "value": "sustained up to 1 minute"
        },
        "hasCounteractCheck": {
            "value": false
        },
        "level": {
            "value": 7
        },
        "location": {
            "value": ""
        },
        "materials": {
            "value": ""
        },
        "prepared": {
            "value": ""
        },
        "primarycheck": {
            "value": ""
        },
        "range": {
            "value": ""
        },
        "rules": [],
        "save": {
            "basic": "",
            "value": ""
        },
        "school": {
            "value": "evocation"
        },
        "secondarycasters": {
            "value": ""
        },
        "secondarycheck": {
            "value": ""
        },
        "source": {
            "value": "Pathfinder #155: Lord of the Black Sands"
        },
        "spellType": {
            "value": "utility"
        },
        "sustained": {
            "value": false
        },
        "target": {
            "value": ""
        },
        "time": {
            "value": "2"
        },
        "traditions": {
            "custom": "",
            "value": [
                "arcane",
                "primal"
            ]
        },
        "traits": {
            "custom": "",
            "rarity": {
                "value": "uncommon"
            },
            "value": [
                "earth"
            ]
        }
    },
    "effects": [],
    "flags": {},
    "img": "systems/pf2e/icons/spells/control-sand.webp",
    "name": "Control Sand",
    "type": "spell"
}
