{
    "_id": "Ifc2b6bNVdjKV7Si",
    "data": {
        "ability": {
            "value": ""
        },
        "area": {
            "areaType": "burst",
            "value": "15"
        },
        "autoHeightenLevel": {
            "value": null
        },
        "category": {
            "value": "spell"
        },
        "components": {
            "focus": false,
            "material": false,
            "somatic": true,
            "verbal": true
        },
        "cost": {
            "value": ""
        },
        "damage": {
            "value": {
                "j69kf1nfy3b1xton": {
                    "applyMod": false,
                    "type": {
                        "categories": [],
                        "subtype": "",
                        "value": "electricity"
                    },
                    "value": "6d6"
                }
            }
        },
        "description": {
            "value": "<p>Your voice projects like cracking thunder as you summon a localized storm, creating a fearsome surge of lightning and wind that deals 6d6 electricity damage. Each creature must attempt a Reflex saving throw.</p>\n<hr />\n<p><strong>Critical Success</strong> The creature is unaffected.</p>\n<p><strong>Success</strong> The creature takes half damage.</p>\n<p><strong>Failure</strong> The creature takes full damage and is knocked @Compendium[pf2e.conditionitems.Prone]{Prone}.</p>\n<p><strong>Critical Failure</strong> The creature takes double damage, is knocked prone, and is @Compendium[pf2e.conditionitems.Stunned]{Stunned 1}.</p>\n<hr />\n<p><strong>Heightened (7th)</strong> The damage increases to 8d6, and targets who critically fail are @Compendium[pf2e.conditionitems.Stunned]{Stunned 2}.</p>\n<p><strong>Heightened (9th)</strong> The damage increases to 10d6, and targets who critically fail are @Compendium[pf2e.conditionitems.Stunned]{Stunned 3}.</p>"
        },
        "duration": {
            "value": ""
        },
        "hasCounteractCheck": {
            "value": false
        },
        "level": {
            "value": 5
        },
        "location": {
            "value": ""
        },
        "materials": {
            "value": ""
        },
        "range": {
            "value": "60 feet"
        },
        "rules": [],
        "save": {
            "basic": "",
            "value": "reflex"
        },
        "scaling": {
            "damage": {
                "j69kf1nfy3b1xton": "2d6"
            },
            "interval": 2
        },
        "school": {
            "value": "evocation"
        },
        "source": {
            "value": "Pathfinder #171: Hurricane's Howl"
        },
        "spellType": {
            "value": "save"
        },
        "sustained": {
            "value": false
        },
        "target": {
            "value": ""
        },
        "time": {
            "value": "2"
        },
        "traditions": {
            "custom": "",
            "value": [
                "primal"
            ]
        },
        "traits": {
            "custom": "",
            "rarity": {
                "value": "uncommon"
            },
            "value": [
                "electricity"
            ]
        }
    },
    "effects": [],
    "flags": {},
    "img": "systems/pf2e/icons/default-icons/spell.svg",
    "name": "Stormburst",
    "type": "spell"
}
