{
    "_id": "DeF63UTmr7rchF60",
    "data": {
        "ability": {
            "value": ""
        },
        "area": {
            "areaType": "",
            "value": ""
        },
        "autoHeightenLevel": {
            "value": null
        },
        "category": {
            "value": "spell"
        },
        "components": {
            "focus": false,
            "material": true,
            "somatic": true,
            "verbal": true
        },
        "cost": {
            "value": ""
        },
        "damage": {
            "value": {}
        },
        "description": {
            "value": "<p>You form a wall of pure darkness in a straight line up to 60 feet long and 10 feet high. You must create the wall in an unbroken open space so its edges don't pass through any creatures or objects, or the spell is lost. The wall stands vertically and, if you wish, can be of a shorter length or height. The wall prevents light from passing through and appears as a sheet of pure darkness to creatures observing it.</p>\n<p>Creatures without darkvision or those unable to see through darkness can't see creatures on the other side of the wall. The wall is too thin for creatures to @Compendium[pf2e.actionspf2e.Hide]{Hide} in the darkness itself, but creatures can Hide from creatures on the other side of the wall as normal.</p>\n<hr />\n<p><strong>Heightened (5th)</strong> Creatures with darkvision (but not greater darkvision) can barely see through the wall. They treat targets seen through the wall as @Compendium[pf2e.conditionitems.Concealed]{Concealed}.</p>\n<p><strong>Heightened (7th)</strong> Creatures with greater darkvision can barely see through the darkness. They treat targets seen through the wall as concealed. All other creatures are unable to see through the darkness at all.</p>"
        },
        "duration": {
            "value": "1 minute"
        },
        "hasCounteractCheck": {
            "value": false
        },
        "level": {
            "value": 3
        },
        "location": {
            "value": ""
        },
        "materials": {
            "value": ""
        },
        "range": {
            "value": "30 feet"
        },
        "rules": [],
        "save": {
            "basic": "",
            "value": ""
        },
        "school": {
            "value": "evocation"
        },
        "source": {
            "value": "Pathfinder #172: Secrets of the Temple-City"
        },
        "spellType": {
            "value": "attack"
        },
        "sustained": {
            "value": false
        },
        "target": {
            "value": ""
        },
        "time": {
            "value": "3"
        },
        "traditions": {
            "custom": "",
            "value": [
                "arcane",
                "occult"
            ]
        },
        "traits": {
            "custom": "",
            "rarity": {
                "value": "uncommon"
            },
            "value": [
                "darkness"
            ]
        }
    },
    "effects": [],
    "flags": {},
    "img": "systems/pf2e/icons/default-icons/spell.svg",
    "name": "Wall of Shadow",
    "type": "spell"
}
