{
    "_id": "BHPDeqQHqi7ukCUW",
    "data": {
        "actionCategory": {
            "value": ""
        },
        "actionType": {
            "value": "passive"
        },
        "actions": {
            "value": null
        },
        "description": {
            "value": "<p>The materials of your body resist ailments that assail the flesh. You gain a +1 circumstance bonus to saving throws against death effects, disease, and poison as well as to saving throws against effects that would give you the drained, paralyzed, or sickened conditions. Your spark of life means that you're a living creature, and you can be healed by positive energy and harmed by negative energy as normal.</p>"
        },
        "featType": {
            "value": "ancestryfeature"
        },
        "level": {
            "value": 0
        },
        "location": "",
        "prerequisites": {
            "value": []
        },
        "rules": [
            {
                "key": "FlatModifier",
                "label": "Constructed (vs. disease, poisons, death effects, paralysis, drained, and sickened)",
                "predicate": {
                    "any": [
                        "disease",
                        "poison",
                        "death-effect",
                        "paralyzed",
                        "drained",
                        "sickened"
                    ]
                },
                "selector": "saving-throw",
                "type": "circumstance",
                "value": 1
            }
        ],
        "source": {
            "value": "Pathfinder Lost Omens: The Grand Bazaar"
        },
        "traits": {
            "custom": "",
            "rarity": {
                "value": "common"
            },
            "value": [
                "poppet"
            ]
        }
    },
    "effects": [],
    "flags": {},
    "img": "systems/pf2e/icons/default-icons/feat.svg",
    "name": "Constructed (Poppet)",
    "type": "feat"
}
