{
    "_id": "AUlPRySCqE6o6LHH",
    "data": {
        "actionCategory": {
            "value": "defensive"
        },
        "actionType": {
            "value": "passive"
        },
        "actions": {
            "value": null
        },
        "description": {
            "value": "<p>You have eyes that point in several different directions and instinctively notice movement in the peripheries of your vision. When you use the Seek basic action, you can look for creatures in two areas instead of one. If precision is necessary, you can select two 30-foot cones or 15-foot bursts within line of sight instead of one.</p>"
        },
        "featType": {
            "value": "ancestryfeature"
        },
        "level": {
            "value": 0
        },
        "location": "",
        "prerequisites": {
            "value": []
        },
        "rules": [],
        "source": {
            "value": ""
        },
        "traits": {
            "custom": "",
            "rarity": {
                "value": "common"
            },
            "value": [
                "goloma"
            ]
        }
    },
    "effects": [],
    "flags": {},
    "img": "systems/pf2e/icons/default-icons/feat.svg",
    "name": "Eyes in Back",
    "type": "feat"
}
