{
    "_id": "kHT9dFJt5yTjeYoB",
    "data": {
        "actionCategory": {
            "value": ""
        },
        "actionType": {
            "value": "passive"
        },
        "actions": {
            "value": null
        },
        "description": {
            "value": "<p>Your ancestors crossed the Crown of the World or resided on snowy peaks. You gain cold resistance equal to half your level (minimum 1). You treat environmental cold effects as if they were one step less extreme (incredible cold becomes extreme, extreme cold becomes severe, and so on). Your alternate form is a common Medium humanoid ancestry prevalent where you grew up (typically human), called a tailless form.</p>"
        },
        "featType": {
            "value": "heritage"
        },
        "level": {
            "value": 0
        },
        "location": "",
        "prerequisites": {
            "value": []
        },
        "rules": [
            {
                "key": "Resistance",
                "type": "cold",
                "value": "max(1,floor(@actor.level/2))"
            }
        ],
        "source": {
            "value": "Pathfinder Lost Omens: Ancestry Guide"
        },
        "traits": {
            "custom": "",
            "rarity": {
                "value": "common"
            },
            "value": [
                "kitsune"
            ]
        }
    },
    "effects": [],
    "flags": {},
    "img": "systems/pf2e/icons/default-icons/feat.svg",
    "name": "Frozen Wind Kitsune",
    "type": "feat"
}
