{
    "_id": "7wdeVadvchdM0aPK",
    "data": {
        "actionCategory": {
            "value": ""
        },
        "actionType": {
            "value": "passive"
        },
        "actions": {
            "value": null
        },
        "description": {
            "value": "<p>You descend from azarketis who migrated to land environments that could support their need for water. Over time, your people adapted to life on land culturally and physically, even resulting in azarketis born with human hair like their Azlanti ancestors. You no longer need to be immersed in water every 24 hours to maintain your skin and can instead mist or wipe your skin with water to live comfortably. Your land Speed is 25 feet, but your swim Speed is only 15 feet.</p>"
        },
        "featType": {
            "value": "heritage"
        },
        "level": {
            "value": 0
        },
        "location": "",
        "prerequisites": {
            "value": []
        },
        "rules": [],
        "source": {
            "value": ""
        },
        "traits": {
            "custom": "",
            "rarity": {
                "value": "common"
            },
            "value": [
                "azarketi"
            ]
        }
    },
    "effects": [],
    "flags": {},
    "img": "systems/pf2e/icons/default-icons/feat.svg",
    "name": "Mistbreath Azarketi",
    "type": "feat"
}
