{
    "_id": "EoWwvDdoMqN5x0c9",
    "data": {
        "actionCategory": {
            "value": "interaction"
        },
        "actionType": {
            "value": "passive"
        },
        "actions": {
            "value": null
        },
        "description": {
            "value": "<p>Your exoskeleton bears small shoots that can share life. When using your Sunlight Healing, you can restore the Hit Points of an adjacent ally instead of yourself. That ally becomes temporarily immune to all uses of Sunlight Healing for 1 day.</p>"
        },
        "featType": {
            "value": "heritage"
        },
        "level": {
            "value": 0
        },
        "location": "",
        "prerequisites": {
            "value": []
        },
        "rules": [],
        "source": {
            "value": ""
        },
        "traits": {
            "custom": "",
            "rarity": {
                "value": "common"
            },
            "value": [
                "conrasu",
                "heritage"
            ]
        }
    },
    "effects": [],
    "flags": {},
    "img": "systems/pf2e/icons/default-icons/feat.svg",
    "name": "Rite of Light",
    "type": "feat"
}
