{
    "_id": "pTYTanMHMwSgJ8TN",
    "data": {
        "description": {
            "value": "<p>@Compendium[pf2e.feats-srd.Defensive Instincts]{Defensive Instincts}</p>\n<p><strong>Requirements</strong> you are adjacent to at least two enemies</p>\n<hr />\n<p>Your body tenses up when surrounded, putting you on edge just enough to anticipate an attack. You gain a +1 circumstance bonus to AC until the beginning of your next turn and Step.</p>"
        },
        "duration": {
            "expiry": "turn-start",
            "sustained": false,
            "unit": "rounds",
            "value": 1
        },
        "level": {
            "value": 1
        },
        "rules": [
            {
                "key": "FlatModifier",
                "label": "Defensive Instincts",
                "selector": "ac",
                "type": "circumstance",
                "value": 1
            }
        ],
        "source": {
            "value": ""
        },
        "start": {
            "initiative": null,
            "value": 0
        },
        "target": null,
        "tokenIcon": {
            "show": true
        },
        "traits": {
            "custom": "",
            "rarity": {
                "value": "common"
            },
            "value": []
        }
    },
    "effects": [],
    "flags": {},
    "img": "systems/pf2e/icons/default-icons/effect.svg",
    "name": "Effect: Defensive Instincts",
    "type": "effect"
}
