{
    "_id": "7hRgBo0fRQBxMK7g",
    "data": {
        "description": {
            "value": "<p>While a creature is @Compendium[pf2e.conditionitems.Flat-Footed]{Flat-Footed} by your Feint, it also takes a -2 circumstance penalty to Perception checks and Reflex saves.</p>"
        },
        "duration": {
            "expiry": "turn-start",
            "sustained": false,
            "unit": "rounds",
            "value": 1
        },
        "level": {
            "value": 1
        },
        "rules": [
            {
                "key": "FlatModifier",
                "selector": "reflex",
                "type": "circumstance",
                "value": -2
            },
            {
                "key": "FlatModifier",
                "selector": "perception",
                "type": "circumstance",
                "value": -2
            }
        ],
        "source": {
            "value": ""
        },
        "start": {
            "initiative": null,
            "value": 0
        },
        "target": null,
        "tokenIcon": {
            "show": true
        },
        "traits": {
            "custom": "",
            "rarity": {
                "value": "common"
            },
            "value": []
        }
    },
    "effects": [],
    "flags": {},
    "img": "systems/pf2e/icons/spells/paralyze.webp",
    "name": "Effect: Distracting Feint",
    "type": "effect"
}
