{
    "_id": "Br1AtKUHe3nbzjnY",
    "data": {
        "abilities": {
            "cha": {
                "mod": 0
            },
            "con": {
                "mod": 3
            },
            "dex": {
                "mod": 1
            },
            "int": {
                "mod": 0
            },
            "str": {
                "mod": 4
            },
            "wis": {
                "mod": 1
            }
        },
        "attributes": {
            "ac": {
                "details": "",
                "value": 20
            },
            "allSaves": {
                "value": ""
            },
            "hp": {
                "details": "",
                "max": 75,
                "temp": 0,
                "value": 75
            },
            "initiative": {
                "ability": "perception"
            },
            "perception": {
                "value": 9
            },
            "shield": {
                "ac": 0,
                "brokenThreshold": 0,
                "hardness": 0,
                "max": 0,
                "value": 0
            },
            "speed": {
                "otherSpeeds": [],
                "value": "10"
            }
        },
        "details": {
            "alignment": {
                "value": "N"
            },
            "blurb": "",
            "creatureType": "Aberration",
            "level": {
                "value": 4
            },
            "privateNotes": "",
            "publicNotes": "<p>Thought to be the result of a failed experiment meant to animate objects or a sinister alghollthu creation, mimics are clever monsters that can take the form of common manufactured objects. Mimics are ambush predators and voracious eaters, surprising their prey through their uncanny ability to mimic the form of common furniture and miscellany. They remain disguised until unsuspecting adventurers happen by, then they lash out in ambush.</p>\n<p>Mimics possess complex alien minds, and while often cruel and self-serving, they also enjoy conversation with their prey from time to time. For unknown reasons, they are especially interested in humanoids. Mimics have a strong dislike for others of their kind and tend to live alone. A mimic can remain in its alternate form for an extremely long period of time, sometimes remaining disguised in a dungeon chamber for decades. Regardless of how long it waits, the mimic remains vigilant and alert, ready to strike at any moment.</p>",
            "source": {
                "value": "Pathfinder Bestiary"
            }
        },
        "resources": {},
        "saves": {
            "fortitude": {
                "saveDetail": "",
                "value": 11
            },
            "reflex": {
                "saveDetail": "",
                "value": 9
            },
            "will": {
                "saveDetail": "",
                "value": 9
            }
        },
        "traits": {
            "attitude": {
                "value": "hostile"
            },
            "ci": [],
            "di": {
                "custom": "",
                "value": []
            },
            "dr": [],
            "dv": [],
            "languages": {
                "custom": "",
                "selected": [],
                "value": [
                    "common"
                ]
            },
            "rarity": {
                "value": "common"
            },
            "senses": {
                "value": "darkvision"
            },
            "size": {
                "value": "med"
            },
            "traits": {
                "custom": "",
                "value": [
                    "aberration"
                ]
            }
        }
    },
    "effects": [],
    "flags": {},
    "img": "systems/pf2e/icons/default-icons/npc.svg",
    "items": [
        {
            "_id": "Af1bf54ub8OEzyPl",
            "data": {
                "attack": {
                    "value": ""
                },
                "attackEffects": {
                    "value": [
                        "adhesive"
                    ]
                },
                "bonus": {
                    "value": 14
                },
                "damageRolls": {
                    "rvlu5qwwq843u9jw1bki": {
                        "damage": "2d8+4",
                        "damageType": "bludgeoning"
                    }
                },
                "description": {
                    "value": ""
                },
                "rules": [],
                "slug": null,
                "source": {
                    "value": ""
                },
                "traits": {
                    "custom": "",
                    "rarity": {
                        "value": "common"
                    },
                    "value": []
                },
                "weaponType": {
                    "value": "melee"
                }
            },
            "effects": [],
            "flags": {},
            "img": "systems/pf2e/icons/default-icons/melee.svg",
            "name": "Pseudopod",
            "sort": 100000,
            "type": "melee"
        },
        {
            "_id": "NBywmjPWO2CaFlhs",
            "data": {
                "actionCategory": {
                    "value": "interaction"
                },
                "actionType": {
                    "value": "passive"
                },
                "actions": {
                    "value": null
                },
                "description": {
                    "value": "<p>@Localize[PF2E.NPC.Abilities.Glossary.Darkvision]</p>"
                },
                "requirements": {
                    "value": ""
                },
                "rules": [],
                "slug": "darkvision",
                "source": {
                    "value": ""
                },
                "traits": {
                    "custom": "",
                    "rarity": {
                        "value": "common"
                    },
                    "value": []
                },
                "trigger": {
                    "value": ""
                },
                "weapon": {
                    "value": ""
                }
            },
            "effects": [],
            "flags": {
                "core": {
                    "sourceId": "Compendium.pf2e.bestiary-ability-glossary-srd.qCCLZhnp2HhP3Ex6"
                }
            },
            "img": "systems/pf2e/icons/actions/Passive.webp",
            "name": "Darkvision",
            "sort": 200000,
            "type": "action"
        },
        {
            "_id": "91iOrkVbzeP7cK2M",
            "data": {
                "actionCategory": {
                    "value": "defensive"
                },
                "actionType": {
                    "value": "passive"
                },
                "actions": {
                    "value": null
                },
                "description": {
                    "value": "<p>The mimic is coated in an adhesive slime. Any creature that hits the mimic, is hit by the mimic, or otherwise touches the mimic must succeed at a <span data-pf2-check=\"reflex\" data-pf2-dc=\"23\" data-pf2-label=\"Adhesive DC\" data-pf2-show-dc=\"gm\">Reflex</span> save or become @Compendium[pf2e.conditionitems.Grabbed]{Grabbed} (Escape DC 23). A weapon that hits the mimic is stuck to the mimic and can be removed with a successful <span data-pf2-check=\"athletics\" data-pf2-dc=\"23\" data-pf2-label=\"Retrieve Stuck Weapon DC\" data-pf2-show-dc=\"gm\">Athletics</span> check (made as a single action).</p>\n<p>A mimic can have any number of objects or creatures stuck to it at a time. The mimic can release a stuck creature or object by using a single action, and the adhesive dissolves 1 minute after the mimic dies, releasing all stuck objects and creatures.</p>"
                },
                "requirements": {
                    "value": ""
                },
                "rules": [],
                "slug": null,
                "source": {
                    "value": ""
                },
                "traits": {
                    "custom": "",
                    "rarity": {
                        "value": "common"
                    },
                    "value": []
                },
                "trigger": {
                    "value": ""
                },
                "weapon": {
                    "value": ""
                }
            },
            "effects": [],
            "flags": {},
            "img": "systems/pf2e/icons/actions/Passive.webp",
            "name": "Adhesive",
            "sort": 300000,
            "type": "action"
        },
        {
            "_id": "Ns2pok7e6UtuKUd6",
            "data": {
                "actionCategory": {
                    "value": "defensive"
                },
                "actionType": {
                    "value": "reaction"
                },
                "actions": {
                    "value": null
                },
                "description": {
                    "value": "<p data-visibility=\"gm\"><strong>Trigger</strong> A creature touches or physically interacts with the mimic while the mimic is transformed using Mimic Object.</p>\n<p><strong>Effect</strong> The triggering creature is automatically stuck by the mimic's adhesive (it receives no save).</p>\n<p>The mimic then makes a pseudopod Strike against any creature adjacent to the mimic.</p>\n<p>Object Lesson can't be used again until the mimic escapes and takes on a new disguise.</p>"
                },
                "requirements": {
                    "value": ""
                },
                "rules": [],
                "slug": null,
                "source": {
                    "value": ""
                },
                "traits": {
                    "custom": "",
                    "rarity": {
                        "value": "common"
                    },
                    "value": []
                },
                "trigger": {
                    "value": ""
                },
                "weapon": {
                    "value": ""
                }
            },
            "effects": [],
            "flags": {},
            "img": "systems/pf2e/icons/actions/Reaction.webp",
            "name": "Object Lesson",
            "sort": 400000,
            "type": "action"
        },
        {
            "_id": "M3QwWIU2rzRHWndo",
            "data": {
                "actionCategory": {
                    "value": "offensive"
                },
                "actionType": {
                    "value": "action"
                },
                "actions": {
                    "value": 1
                },
                "description": {
                    "value": "<p>The mimic assumes the shape of any Medium object. This doesn't change the mimic's texture or overall size but can alter its coloration and visual appearance.</p>\n<p>It has an automatic result of 28 on Deception checks and DCs to pass as the object that it's mimicking.</p>"
                },
                "requirements": {
                    "value": ""
                },
                "rules": [],
                "slug": null,
                "source": {
                    "value": ""
                },
                "traits": {
                    "custom": "",
                    "rarity": {
                        "value": "common"
                    },
                    "value": [
                        "concentrate",
                        "polymorph"
                    ]
                },
                "trigger": {
                    "value": ""
                },
                "weapon": {
                    "value": ""
                }
            },
            "effects": [],
            "flags": {},
            "img": "systems/pf2e/icons/actions/OneAction.webp",
            "name": "Mimic Object",
            "sort": 500000,
            "type": "action"
        },
        {
            "_id": "FcgyZ9I8mKFY6Gki",
            "data": {
                "description": {
                    "value": ""
                },
                "item": {
                    "value": 0
                },
                "mod": {
                    "value": 12
                },
                "proficient": {
                    "value": 0
                },
                "rules": [],
                "slug": null,
                "source": {
                    "value": ""
                },
                "traits": {
                    "custom": "",
                    "rarity": {
                        "value": "common"
                    },
                    "value": []
                }
            },
            "effects": [],
            "flags": {},
            "img": "systems/pf2e/icons/default-icons/lore.svg",
            "name": "Athletics",
            "sort": 600000,
            "type": "lore"
        },
        {
            "_id": "C6TZN3q79cjxQvQN",
            "data": {
                "description": {
                    "value": ""
                },
                "item": {
                    "value": 0
                },
                "mod": {
                    "value": 8
                },
                "proficient": {
                    "value": 0
                },
                "rules": [],
                "slug": null,
                "source": {
                    "value": ""
                },
                "traits": {
                    "custom": "",
                    "rarity": {
                        "value": "common"
                    },
                    "value": []
                }
            },
            "effects": [],
            "flags": {},
            "img": "systems/pf2e/icons/default-icons/lore.svg",
            "name": "Deception",
            "sort": 700000,
            "type": "lore"
        },
        {
            "_id": "qGVF829Lwi4ZemA9",
            "data": {
                "description": {
                    "value": ""
                },
                "item": {
                    "value": 0
                },
                "mod": {
                    "value": 10
                },
                "proficient": {
                    "value": 0
                },
                "rules": [],
                "slug": null,
                "source": {
                    "value": ""
                },
                "traits": {
                    "custom": "",
                    "rarity": {
                        "value": "common"
                    },
                    "value": []
                },
                "variants": {}
            },
            "effects": [],
            "flags": {},
            "img": "systems/pf2e/icons/default-icons/lore.svg",
            "name": "Dwelling Lore (applies only to the dungeon it lives in)",
            "sort": 800000,
            "type": "lore"
        }
    ],
    "name": "Mimic",
    "token": {
        "disposition": -1,
        "height": 1,
        "img": "systems/pf2e/icons/default-icons/npc.svg",
        "name": "Mimic",
        "width": 1
    },
    "type": "npc"
}
