{
    "_id": "KpxhSWRIhG7ns5NA",
    "data": {
        "abilities": {
            "cha": {
                "mod": -4
            },
            "con": {
                "mod": 0
            },
            "dex": {
                "mod": 3
            },
            "int": {
                "mod": -5
            },
            "str": {
                "mod": -2
            },
            "wis": {
                "mod": 0
            }
        },
        "attributes": {
            "ac": {
                "details": "",
                "value": 15
            },
            "allSaves": {
                "value": ""
            },
            "hp": {
                "details": "",
                "max": 12,
                "temp": 0,
                "value": 12
            },
            "initiative": {
                "ability": "perception"
            },
            "perception": {
                "value": 4
            },
            "shield": {
                "ac": 0,
                "brokenThreshold": 0,
                "hardness": 0,
                "max": 0,
                "value": 0
            },
            "speed": {
                "otherSpeeds": [
                    {
                        "type": "climb",
                        "value": "20"
                    }
                ],
                "value": "20"
            }
        },
        "details": {
            "alignment": {
                "value": "N"
            },
            "blurb": "",
            "creatureType": "Animal",
            "level": {
                "value": 0
            },
            "privateNotes": "",
            "publicNotes": "<p>An abundance of food, the sudden hatching of a clutch of eggs, or magical influence can cause smaller spiders to gather in terrifying, deadly masses.</p>\n<hr />\n<p>Few everyday vermin inspire as much dread as the infamous spider.</p>",
            "source": {
                "value": "Pathfinder Bestiary"
            }
        },
        "resources": {},
        "saves": {
            "fortitude": {
                "saveDetail": "",
                "value": 4
            },
            "reflex": {
                "saveDetail": "",
                "value": 7
            },
            "will": {
                "saveDetail": "",
                "value": 2
            }
        },
        "traits": {
            "ci": [],
            "di": {
                "custom": "",
                "value": [
                    "precision",
                    "swarm-mind"
                ]
            },
            "dr": [
                {
                    "exceptions": "",
                    "type": "bludgeoning",
                    "value": 2
                },
                {
                    "exceptions": "",
                    "type": "piercing",
                    "value": 5
                },
                {
                    "exceptions": "",
                    "type": "slashing",
                    "value": 5
                }
            ],
            "dv": [
                {
                    "type": "area-damage",
                    "value": 5
                },
                {
                    "type": "splash-damage",
                    "value": 5
                }
            ],
            "languages": {
                "custom": "",
                "selected": [],
                "value": []
            },
            "rarity": {
                "value": "common"
            },
            "senses": {
                "value": "darkvision, web sense"
            },
            "size": {
                "value": "lg"
            },
            "traits": {
                "custom": "",
                "value": [
                    "animal",
                    "swarm"
                ]
            }
        }
    },
    "effects": [],
    "flags": {},
    "img": "systems/pf2e/icons/default-icons/npc.svg",
    "items": [
        {
            "_id": "1RIzUNU0v2cfgsjD",
            "data": {
                "actionCategory": {
                    "value": "interaction"
                },
                "actionType": {
                    "value": "passive"
                },
                "actions": {
                    "value": null
                },
                "description": {
                    "value": "<p>@Localize[PF2E.NPC.Abilities.Glossary.Darkvision]</p>"
                },
                "requirements": {
                    "value": ""
                },
                "rules": [],
                "slug": "darkvision",
                "source": {
                    "value": ""
                },
                "traits": {
                    "custom": "",
                    "rarity": {
                        "value": "common"
                    },
                    "value": []
                },
                "trigger": {
                    "value": ""
                },
                "weapon": {
                    "value": ""
                }
            },
            "effects": [],
            "flags": {
                "core": {
                    "sourceId": "Compendium.pf2e.bestiary-ability-glossary-srd.qCCLZhnp2HhP3Ex6"
                }
            },
            "img": "systems/pf2e/icons/actions/Passive.webp",
            "name": "Darkvision",
            "sort": 100000,
            "type": "action"
        },
        {
            "_id": "bmmCoxENGAgHtWP1",
            "data": {
                "actionCategory": {
                    "value": "interaction"
                },
                "actionType": {
                    "value": "passive"
                },
                "actions": {
                    "value": null
                },
                "description": {
                    "value": "<p>The spider swarm has imprecise @Compendium[pf2e.bestiary-ability-glossary-srd.Tremorsense]{Tremorsense} to detect the vibrations of creatures touching its web.</p>"
                },
                "requirements": {
                    "value": ""
                },
                "rules": [],
                "slug": null,
                "source": {
                    "value": ""
                },
                "traits": {
                    "custom": "",
                    "rarity": {
                        "value": "common"
                    },
                    "value": []
                },
                "trigger": {
                    "value": ""
                },
                "weapon": {
                    "value": ""
                }
            },
            "effects": [],
            "flags": {},
            "img": "systems/pf2e/icons/actions/Passive.webp",
            "name": "Web Sense",
            "sort": 200000,
            "type": "action"
        },
        {
            "_id": "bLrblJlMOfhn39My",
            "data": {
                "actionCategory": {
                    "value": "defensive"
                },
                "actionType": {
                    "value": "passive"
                },
                "actions": {
                    "value": null
                },
                "description": {
                    "value": "<p>@Localize[PF2E.NPC.Abilities.Glossary.SwarmMind]</p>"
                },
                "requirements": {
                    "value": ""
                },
                "rules": [],
                "slug": "swarm-mind",
                "source": {
                    "value": ""
                },
                "traits": {
                    "custom": "",
                    "rarity": {
                        "value": "common"
                    },
                    "value": []
                },
                "trigger": {
                    "value": ""
                },
                "weapon": {
                    "value": ""
                }
            },
            "effects": [],
            "flags": {
                "core": {
                    "sourceId": "Compendium.pf2e.bestiary-ability-glossary-srd.baA0nSMhQyFyJIia"
                }
            },
            "img": "systems/pf2e/icons/actions/Passive.webp",
            "name": "Swarm Mind",
            "sort": 300000,
            "type": "action"
        },
        {
            "_id": "bEsmMOS1PqhLHHbh",
            "data": {
                "actionCategory": {
                    "value": "offensive"
                },
                "actionType": {
                    "value": "action"
                },
                "actions": {
                    "value": 1
                },
                "description": {
                    "value": "<p>Each enemy in the spider swarm's space takes [[/r {1d4}[piercing]]]{1d4 piercing damage} with a <span data-pf2-check=\"reflex\" data-pf2-dc=\"14\" data-pf2-traits=\"damaging-effect\" data-pf2-label=\"Swarming Bites DC\" data-pf2-show-dc=\"gm\">basic Reflex</span> save.</p>\n<p data-visibility=\"gm\">A creature that fails its save is exposed to spider swarm venom.</p>"
                },
                "requirements": {
                    "value": ""
                },
                "rules": [],
                "slug": null,
                "source": {
                    "value": ""
                },
                "traits": {
                    "custom": "",
                    "rarity": {
                        "value": "common"
                    },
                    "value": []
                },
                "trigger": {
                    "value": ""
                },
                "weapon": {
                    "value": ""
                }
            },
            "effects": [],
            "flags": {},
            "img": "systems/pf2e/icons/actions/OneAction.webp",
            "name": "Swarming Bites",
            "sort": 400000,
            "type": "action"
        },
        {
            "_id": "NIgj8uAlgosxMdVf",
            "data": {
                "actionCategory": {
                    "value": "offensive"
                },
                "actionType": {
                    "value": "passive"
                },
                "actions": {
                    "value": null
                },
                "description": {
                    "value": "<p><strong>Saving Throw</strong> <span data-pf2-check=\"fortitude\" data-pf2-dc=\"14\" data-pf2-traits=\"poison\" data-pf2-label=\"Spider Swarm Venom DC\" data-pf2-show-dc=\"gm\">Fortitude</span></p>\n<div data-visibility=\"gm\">\n<p><strong>Maximum Duration</strong> 4 rounds</p>\n<p><strong>Stage 1</strong> [[/r 1 #poison]]{1 poison} and @Compendium[pf2e.conditionitems.Enfeebled]{Enfeebled 1} (1 round)</p>\n<p><strong>Stage 2</strong> [[/r {1d4}[poison]]]{1d4 poison} and @Compendium[pf2e.conditionitems.Enfeebled]{Enfeebled 1} (1 round)</p>\n</div>"
                },
                "requirements": {
                    "value": ""
                },
                "rules": [],
                "slug": null,
                "source": {
                    "value": ""
                },
                "traits": {
                    "custom": "",
                    "rarity": {
                        "value": "common"
                    },
                    "value": [
                        "poison"
                    ]
                },
                "trigger": {
                    "value": ""
                },
                "weapon": {
                    "value": ""
                }
            },
            "effects": [],
            "flags": {},
            "img": "systems/pf2e/icons/actions/Passive.webp",
            "name": "Spider Swarm Venom",
            "sort": 500000,
            "type": "action"
        },
        {
            "_id": "inw32aSN5oZpUvZh",
            "data": {
                "description": {
                    "value": ""
                },
                "item": {
                    "value": 0
                },
                "mod": {
                    "value": 5
                },
                "proficient": {
                    "value": 0
                },
                "rules": [],
                "slug": null,
                "source": {
                    "value": ""
                },
                "traits": {
                    "custom": "",
                    "rarity": {
                        "value": "common"
                    },
                    "value": []
                }
            },
            "effects": [],
            "flags": {},
            "img": "systems/pf2e/icons/default-icons/lore.svg",
            "name": "Acrobatics",
            "sort": 600000,
            "type": "lore"
        },
        {
            "_id": "AeZlzpZq2cN2qmQx",
            "data": {
                "description": {
                    "value": ""
                },
                "item": {
                    "value": 0
                },
                "mod": {
                    "value": 2
                },
                "proficient": {
                    "value": 0
                },
                "rules": [],
                "slug": null,
                "source": {
                    "value": ""
                },
                "traits": {
                    "custom": "",
                    "rarity": {
                        "value": "common"
                    },
                    "value": []
                }
            },
            "effects": [],
            "flags": {},
            "img": "systems/pf2e/icons/default-icons/lore.svg",
            "name": "Athletics",
            "sort": 700000,
            "type": "lore"
        },
        {
            "_id": "gUFj2owpVdwF5lXO",
            "data": {
                "description": {
                    "value": ""
                },
                "item": {
                    "value": 0
                },
                "mod": {
                    "value": 5
                },
                "proficient": {
                    "value": 0
                },
                "rules": [],
                "slug": null,
                "source": {
                    "value": ""
                },
                "traits": {
                    "custom": "",
                    "rarity": {
                        "value": "common"
                    },
                    "value": []
                }
            },
            "effects": [],
            "flags": {},
            "img": "systems/pf2e/icons/default-icons/lore.svg",
            "name": "Stealth",
            "sort": 800000,
            "type": "lore"
        }
    ],
    "name": "Spider Swarm",
    "token": {
        "disposition": -1,
        "height": 2,
        "img": "systems/pf2e/icons/default-icons/npc.svg",
        "name": "Spider Swarm",
        "width": 2
    },
    "type": "npc"
}
