{
    "_id": "B0QyZEjAXUG5TsJU",
    "data": {
        "abilities": {
            "cha": {
                "mod": 2
            },
            "con": {
                "mod": 6
            },
            "dex": {
                "mod": 1
            },
            "int": {
                "mod": 3
            },
            "str": {
                "mod": 8
            },
            "wis": {
                "mod": 5
            }
        },
        "attributes": {
            "ac": {
                "details": "",
                "value": 34
            },
            "allSaves": {
                "value": ""
            },
            "hp": {
                "details": "",
                "max": 235,
                "temp": 0,
                "value": 235
            },
            "initiative": {
                "ability": "perception"
            },
            "perception": {
                "value": 24
            },
            "shield": {
                "ac": 0,
                "brokenThreshold": 0,
                "hardness": 0,
                "max": 0,
                "value": 0
            },
            "speed": {
                "details": "",
                "otherSpeeds": [
                    {
                        "type": "swim",
                        "value": "30"
                    }
                ],
                "value": "35"
            }
        },
        "details": {
            "alignment": {
                "value": "CG"
            },
            "blurb": "",
            "creatureType": "Giant",
            "level": {
                "value": 13
            },
            "privateNotes": "",
            "publicNotes": "<p>Storm giants are looming but benevolent stewards of sea and sky, often serving as the natural guardians of tropical islands, coastlines, or rocky archipelagos. Storm giants tend to rapidly shift in mood and behavior, one moment engaging in peaceful negotiation, the next unleashing unbridled ferocity against their foes. In this way, they embody both the fury of a raging tempest and the calm of a hurricane's eye. This can make them valuable allies who race to the aid of those in need, but their allies remain must be alert and mindful of their mood, as the giants can be quick to anger or aggressive when caution is most appropriate.</p>\n<p>Most storm giants have complexions akin to the crystal blue of the ocean or the warm violet of a sky touched by the setting sun. Their hair tends to be dark purple, blue, or black, and their eyes often have a silvery sheen. A typical storm giant stands 21 feet tall, weighs 12,000 pounds, and lives to be about 600 years old.</p>\n<hr />\n<p>Giants are massive humanoid creatures who live in remote regions throughout the world. They are divided into a number of subtypes.</p>",
            "source": {
                "value": "Pathfinder Bestiary"
            }
        },
        "resources": {
            "focus": {
                "max": 1,
                "value": 1
            }
        },
        "saves": {
            "fortitude": {
                "saveDetail": "",
                "value": 28
            },
            "reflex": {
                "saveDetail": "",
                "value": 21
            },
            "will": {
                "saveDetail": "",
                "value": 23
            }
        },
        "traits": {
            "ci": [],
            "di": {
                "custom": "",
                "value": [
                    "electricity"
                ]
            },
            "dr": [],
            "dv": [],
            "languages": {
                "custom": "",
                "selected": [],
                "value": [
                    "auran",
                    "common",
                    "draconic",
                    "jotun"
                ]
            },
            "rarity": {
                "value": "common"
            },
            "senses": {
                "value": "low-light vision"
            },
            "size": {
                "value": "huge"
            },
            "traits": {
                "custom": "",
                "value": [
                    "amphibious",
                    "giant",
                    "humanoid"
                ]
            }
        }
    },
    "effects": [],
    "flags": {},
    "img": "systems/pf2e/icons/default-icons/npc.svg",
    "items": [
        {
            "_id": "W1uyRdJuvABJ7epP",
            "data": {
                "autoHeightenLevel": {
                    "value": null
                },
                "description": {
                    "value": ""
                },
                "displayLevels": {},
                "prepared": {
                    "flexible": false,
                    "value": "innate"
                },
                "proficiency": {
                    "value": 0
                },
                "rules": [],
                "showSlotlessLevels": {
                    "value": false
                },
                "showUnpreparedSpells": {
                    "value": true
                },
                "signatureSpells": {
                    "value": []
                },
                "slots": {
                    "slot0": {
                        "max": 0,
                        "prepared": [],
                        "value": 0
                    },
                    "slot1": {
                        "max": 0,
                        "prepared": [],
                        "value": 0
                    },
                    "slot10": {
                        "max": 0,
                        "prepared": [],
                        "value": 0
                    },
                    "slot11": {
                        "max": 0,
                        "prepared": [],
                        "value": 0
                    },
                    "slot2": {
                        "max": 0,
                        "prepared": [],
                        "value": 0
                    },
                    "slot3": {
                        "max": 0,
                        "prepared": [],
                        "value": 0
                    },
                    "slot4": {
                        "max": 0,
                        "prepared": [],
                        "value": 0
                    },
                    "slot5": {
                        "max": 0,
                        "prepared": [],
                        "value": 0
                    },
                    "slot6": {
                        "max": 0,
                        "prepared": [],
                        "value": 0
                    },
                    "slot7": {
                        "max": 0,
                        "prepared": [],
                        "value": 0
                    },
                    "slot8": {
                        "max": 0,
                        "prepared": [],
                        "value": 0
                    },
                    "slot9": {
                        "max": 0,
                        "prepared": [],
                        "value": 0
                    }
                },
                "slug": null,
                "source": {
                    "value": ""
                },
                "spelldc": {
                    "dc": 33,
                    "mod": 0,
                    "value": 25
                },
                "tradition": {
                    "value": "arcane"
                },
                "traits": {
                    "custom": "",
                    "rarity": {
                        "value": "common"
                    },
                    "value": []
                }
            },
            "effects": [],
            "flags": {},
            "img": "systems/pf2e/icons/default-icons/spellcastingEntry.svg",
            "name": "Arcane Innate Spells",
            "sort": 100000,
            "type": "spellcastingEntry"
        },
        {
            "_id": "YcUUgmJYsro7CJNU",
            "data": {
                "ability": {
                    "value": ""
                },
                "area": {
                    "areaType": "",
                    "value": ""
                },
                "areasize": {
                    "value": ""
                },
                "autoHeightenLevel": {
                    "value": null
                },
                "category": {
                    "value": "spell"
                },
                "components": {
                    "focus": false,
                    "material": false,
                    "somatic": true,
                    "verbal": true
                },
                "cost": {
                    "value": ""
                },
                "damage": {
                    "value": {
                        "0": {
                            "applyMod": false,
                            "type": {
                                "categories": [],
                                "subtype": "",
                                "value": "electricity"
                            },
                            "value": "8d12"
                        }
                    }
                },
                "description": {
                    "value": "<p>You discharge a powerful bolt of lightning at the target, dealing 8d12 electricity damage. The target must attempt a basic Reflex save. The electricity arcs to another creature within 30 feet of the first target, jumps to another creature within 30 feet of that target, and so on. You can end the chain at any point. You can't target the same creature more than once, and you must have line of effect to all targets. Roll the damage only once, and apply it to each target (halving or doubling as appropriate for its saving throw outcome). The chain ends if any one of the targets critically succeeds at its save.</p>\n<hr />\n<p><strong>Heightened (+1)</strong> The damage increases by 1d12.</p>"
                },
                "duration": {
                    "value": ""
                },
                "hasCounteractCheck": {
                    "value": false
                },
                "heightenedLevel": {
                    "value": 6
                },
                "level": {
                    "value": 6
                },
                "location": {
                    "value": "W1uyRdJuvABJ7epP"
                },
                "materials": {
                    "value": ""
                },
                "prepared": {
                    "value": ""
                },
                "primarycheck": {
                    "value": ""
                },
                "range": {
                    "value": "500 feet"
                },
                "rules": [],
                "save": {
                    "basic": "basic",
                    "value": "reflex"
                },
                "scaling": {
                    "damage": {
                        "0": "1d12"
                    },
                    "interval": 1
                },
                "school": {
                    "value": "evocation"
                },
                "secondarycasters": {
                    "value": ""
                },
                "secondarycheck": {
                    "value": ""
                },
                "slug": "chain-lightning",
                "source": {
                    "value": "Pathfinder Core Rulebook"
                },
                "spellType": {
                    "value": "save"
                },
                "sustained": {
                    "value": false
                },
                "target": {
                    "value": "1 creature, plus any number of additional creatures"
                },
                "time": {
                    "value": "2"
                },
                "traditions": {
                    "value": [
                        "arcane",
                        "primal"
                    ]
                },
                "traits": {
                    "custom": "",
                    "rarity": {
                        "value": "common"
                    },
                    "value": [
                        "electricity"
                    ]
                }
            },
            "effects": [],
            "flags": {
                "core": {
                    "sourceId": "Compendium.pf2e.spells-srd.TDNlDWbYb58Y55Da"
                }
            },
            "img": "systems/pf2e/icons/spells/chain-lightning.webp",
            "name": "Chain Lightning",
            "sort": 200000,
            "type": "spell"
        },
        {
            "_id": "5F18ecgC5xA3kaK5",
            "data": {
                "ability": {
                    "value": ""
                },
                "area": {
                    "areaType": "",
                    "value": ""
                },
                "areasize": {
                    "value": ""
                },
                "autoHeightenLevel": {
                    "value": null
                },
                "category": {
                    "value": "spell"
                },
                "components": {
                    "focus": false,
                    "material": false,
                    "somatic": true,
                    "verbal": true
                },
                "cost": {
                    "value": ""
                },
                "damage": {
                    "value": {
                        "0": {
                            "applyMod": false,
                            "type": {
                                "categories": [],
                                "subtype": "",
                                "value": "electricity"
                            },
                            "value": "8d12"
                        }
                    }
                },
                "description": {
                    "value": "<p>You discharge a powerful bolt of lightning at the target, dealing 8d12 electricity damage. The target must attempt a basic Reflex save. The electricity arcs to another creature within 30 feet of the first target, jumps to another creature within 30 feet of that target, and so on. You can end the chain at any point. You can't target the same creature more than once, and you must have line of effect to all targets. Roll the damage only once, and apply it to each target (halving or doubling as appropriate for its saving throw outcome). The chain ends if any one of the targets critically succeeds at its save.</p>\n<hr />\n<p><strong>Heightened (+1)</strong> The damage increases by 1d12.</p>"
                },
                "duration": {
                    "value": ""
                },
                "hasCounteractCheck": {
                    "value": false
                },
                "heightenedLevel": {
                    "value": 6
                },
                "level": {
                    "value": 6
                },
                "location": {
                    "value": "W1uyRdJuvABJ7epP"
                },
                "materials": {
                    "value": ""
                },
                "prepared": {
                    "value": ""
                },
                "primarycheck": {
                    "value": ""
                },
                "range": {
                    "value": "500 feet"
                },
                "rules": [],
                "save": {
                    "basic": "basic",
                    "value": "reflex"
                },
                "scaling": {
                    "damage": {
                        "0": "1d12"
                    },
                    "interval": 1
                },
                "school": {
                    "value": "evocation"
                },
                "secondarycasters": {
                    "value": ""
                },
                "secondarycheck": {
                    "value": ""
                },
                "slug": "chain-lightning",
                "source": {
                    "value": "Pathfinder Core Rulebook"
                },
                "spellType": {
                    "value": "save"
                },
                "sustained": {
                    "value": false
                },
                "target": {
                    "value": "1 creature, plus any number of additional creatures"
                },
                "time": {
                    "value": "2"
                },
                "traditions": {
                    "value": [
                        "arcane",
                        "primal"
                    ]
                },
                "traits": {
                    "custom": "",
                    "rarity": {
                        "value": "common"
                    },
                    "value": [
                        "electricity"
                    ]
                }
            },
            "effects": [],
            "flags": {
                "core": {
                    "sourceId": "Compendium.pf2e.spells-srd.TDNlDWbYb58Y55Da"
                }
            },
            "img": "systems/pf2e/icons/spells/chain-lightning.webp",
            "name": "Chain Lightning",
            "sort": 300000,
            "type": "spell"
        },
        {
            "_id": "vnNlXf9FlBeTWIDI",
            "data": {
                "ability": {
                    "value": ""
                },
                "area": {
                    "areaType": "",
                    "value": ""
                },
                "areasize": {
                    "value": ""
                },
                "autoHeightenLevel": {
                    "value": null
                },
                "category": {
                    "value": "spell"
                },
                "components": {
                    "focus": false,
                    "material": false,
                    "somatic": true,
                    "verbal": true
                },
                "cost": {
                    "value": ""
                },
                "damage": {
                    "value": {
                        "0": {
                            "applyMod": false,
                            "type": {
                                "categories": [],
                                "subtype": "",
                                "value": "electricity"
                            },
                            "value": "8d12"
                        }
                    }
                },
                "description": {
                    "value": "<p>You discharge a powerful bolt of lightning at the target, dealing 8d12 electricity damage. The target must attempt a basic Reflex save. The electricity arcs to another creature within 30 feet of the first target, jumps to another creature within 30 feet of that target, and so on. You can end the chain at any point. You can't target the same creature more than once, and you must have line of effect to all targets. Roll the damage only once, and apply it to each target (halving or doubling as appropriate for its saving throw outcome). The chain ends if any one of the targets critically succeeds at its save.</p>\n<hr />\n<p><strong>Heightened (+1)</strong> The damage increases by 1d12.</p>"
                },
                "duration": {
                    "value": ""
                },
                "hasCounteractCheck": {
                    "value": false
                },
                "heightenedLevel": {
                    "value": 6
                },
                "level": {
                    "value": 6
                },
                "location": {
                    "value": "W1uyRdJuvABJ7epP"
                },
                "materials": {
                    "value": ""
                },
                "prepared": {
                    "value": ""
                },
                "primarycheck": {
                    "value": ""
                },
                "range": {
                    "value": "500 feet"
                },
                "rules": [],
                "save": {
                    "basic": "basic",
                    "value": "reflex"
                },
                "scaling": {
                    "damage": {
                        "0": "1d12"
                    },
                    "interval": 1
                },
                "school": {
                    "value": "evocation"
                },
                "secondarycasters": {
                    "value": ""
                },
                "secondarycheck": {
                    "value": ""
                },
                "slug": "chain-lightning",
                "source": {
                    "value": "Pathfinder Core Rulebook"
                },
                "spellType": {
                    "value": "save"
                },
                "sustained": {
                    "value": false
                },
                "target": {
                    "value": "1 creature, plus any number of additional creatures"
                },
                "time": {
                    "value": "2"
                },
                "traditions": {
                    "value": [
                        "arcane",
                        "primal"
                    ]
                },
                "traits": {
                    "custom": "",
                    "rarity": {
                        "value": "common"
                    },
                    "value": [
                        "electricity"
                    ]
                }
            },
            "effects": [],
            "flags": {
                "core": {
                    "sourceId": "Compendium.pf2e.spells-srd.TDNlDWbYb58Y55Da"
                }
            },
            "img": "systems/pf2e/icons/spells/chain-lightning.webp",
            "name": "Chain Lightning",
            "sort": 400000,
            "type": "spell"
        },
        {
            "_id": "ZnTTiuOGrLAY6c9F",
            "data": {
                "ability": {
                    "value": ""
                },
                "area": {
                    "areaType": "",
                    "value": ""
                },
                "areasize": {
                    "value": "2-mile-radius circle centered on you"
                },
                "autoHeightenLevel": {
                    "value": null
                },
                "category": {
                    "value": "spell"
                },
                "components": {
                    "focus": false,
                    "material": false,
                    "somatic": false,
                    "verbal": false
                },
                "cost": {
                    "value": ""
                },
                "damage": {
                    "value": {}
                },
                "description": {
                    "value": "<p>You alter the weather, making it calm and normal for the season or choosing up to two effects based on the season.</p>\n<p>You can't specifically control the manifestations, such as the exact path of a tornado or the targets of lightning strikes.</p>\n<ul>\n<li><strong>Autumn</strong> cold weather, fog, mild heat, sleet</li>\n<li><strong>Spring</strong> drizzle, heat, hurricane, sleet, thunderstorm, tornado</li>\n<li><strong>Summer</strong> drizzle, downpour, extreme heat, hail, heat</li>\n<li><strong>Winter</strong> blizzard, mild cold, extreme cold, thaw</li>\n</ul>\n<hr />\n<p><strong>Critical Success</strong> You change the weather as desired and can affect a larger area (up to a 5-mile-radius circle), or a longer duration (any number of additional d12 hours, up to 16d12).</p>\n<p><strong>Success</strong> You change the weather as desired.</p>\n<p><strong>Failure</strong> You fail to change the weather as desired.</p>\n<p><strong>Critical Failure</strong> The weather changes in an unanticipated way, determined by the GM but generally as contradictory to your true desires as possible (for instance, a terrible storm emerges when you would prefer good weather).</p>\n<hr />\n<p><strong>Heightened (9th)</strong> You can create unseasonable weather and contradictory weather effects, such as extreme cold and a hurricane. You can make the weather calm and normal weather for a different season or choose weather effects from any season's list.</p>"
                },
                "duration": {
                    "value": "4d12 hours"
                },
                "hasCounteractCheck": {
                    "value": false
                },
                "level": {
                    "value": 5
                },
                "location": {
                    "value": "W1uyRdJuvABJ7epP"
                },
                "materials": {
                    "value": ""
                },
                "prepared": {
                    "value": ""
                },
                "primarycheck": {
                    "value": "Nature (master)"
                },
                "range": {
                    "value": ""
                },
                "rules": [],
                "save": {
                    "basic": "",
                    "value": ""
                },
                "school": {
                    "value": "evocation"
                },
                "secondarycasters": {
                    "value": "1"
                },
                "secondarycheck": {
                    "value": "Survival"
                },
                "slug": "control-weather",
                "source": {
                    "value": "Pathfinder Secrets of Magic"
                },
                "spellType": {
                    "value": "utility"
                },
                "sustained": {
                    "value": false
                },
                "target": {
                    "value": ""
                },
                "time": {
                    "value": "1 day"
                },
                "traditions": {
                    "custom": "",
                    "value": []
                },
                "traits": {
                    "custom": "",
                    "rarity": {
                        "value": "uncommon"
                    },
                    "value": []
                }
            },
            "effects": [],
            "flags": {
                "core": {
                    "sourceId": "Compendium.pf2e.spells-srd.XkDCzMIyc0YOjw05"
                }
            },
            "img": "systems/pf2e/icons/spells/control-weather.webp",
            "name": "Control Weather (At Will)",
            "sort": 500000,
            "type": "spell"
        },
        {
            "_id": "ZjPs2BJXU8fI4dyP",
            "data": {
                "ability": {
                    "value": ""
                },
                "area": {
                    "areaType": "",
                    "value": ""
                },
                "areasize": {
                    "value": ""
                },
                "autoHeightenLevel": {
                    "value": null
                },
                "category": {
                    "value": "spell"
                },
                "components": {
                    "focus": false,
                    "material": false,
                    "somatic": true,
                    "verbal": true
                },
                "cost": {
                    "value": ""
                },
                "damage": {
                    "value": {}
                },
                "description": {
                    "value": "<p>You repel effects that would hinder a creature or slow its movement. While under this spell's effect, the target ignores effects that would give them a circumstance penalty to Speed. When they attempt to @Compendium[pf2e.actionspf2e.Escape]{Escape} an effect that has them @Compendium[pf2e.conditionitems.Immobilized]{Immobilized}, @Compendium[pf2e.conditionitems.Grabbed]{Grabbed}, or @Compendium[pf2e.conditionitems.Restrained]{Restrained}, they automatically succeed unless the effect is magical and of a higher level than the freedom of movement spell.</p>"
                },
                "duration": {
                    "value": "10 minutes"
                },
                "hasCounteractCheck": {
                    "value": false
                },
                "heightenedLevel": {
                    "value": 4
                },
                "level": {
                    "value": 4
                },
                "location": {
                    "value": "W1uyRdJuvABJ7epP"
                },
                "materials": {
                    "value": ""
                },
                "prepared": {
                    "value": ""
                },
                "primarycheck": {
                    "value": ""
                },
                "range": {
                    "value": "touch"
                },
                "rules": [],
                "save": {
                    "basic": "",
                    "value": ""
                },
                "school": {
                    "value": "abjuration"
                },
                "secondarycasters": {
                    "value": ""
                },
                "secondarycheck": {
                    "value": ""
                },
                "slug": "freedom-of-movement",
                "source": {
                    "value": "Pathfinder Core Rulebook"
                },
                "spellType": {
                    "value": "utility"
                },
                "sustained": {
                    "value": false
                },
                "target": {
                    "value": "1 creature touched"
                },
                "time": {
                    "value": "2"
                },
                "traditions": {
                    "value": [
                        "arcane",
                        "divine",
                        "primal"
                    ]
                },
                "traits": {
                    "custom": "",
                    "rarity": {
                        "value": "common"
                    },
                    "value": []
                }
            },
            "effects": [],
            "flags": {
                "core": {
                    "sourceId": "Compendium.pf2e.spells-srd.aqRYNoSvxsVfqglH"
                }
            },
            "img": "systems/pf2e/icons/spells/freedom-of-movement.webp",
            "name": "Freedom of Movement (Constant)",
            "sort": 600000,
            "type": "spell"
        },
        {
            "_id": "VwVV639b1fqL180o",
            "data": {
                "ability": {
                    "value": ""
                },
                "area": {
                    "areaType": "",
                    "value": ""
                },
                "areasize": {
                    "value": ""
                },
                "autoHeightenLevel": {
                    "value": null
                },
                "category": {
                    "value": "spell"
                },
                "components": {
                    "focus": false,
                    "material": false,
                    "somatic": true,
                    "verbal": true
                },
                "cost": {
                    "value": ""
                },
                "damage": {
                    "value": {}
                },
                "description": {
                    "value": "<p>You defy gravity and levitate the target 5 feet off the ground. For the duration of the spell, you can move the target up or down 10 feet with a single action, which has the concentrate trait. A creature floating in the air from levitate takes a -2 circumstance penalty to attack rolls. A floating creature can spend an Interact action to stabilize itself and negate this penalty for the remainder of its turn. If the target is adjacent to a fixed object or terrain of suitable stability, it can move across the surface by climbing (if the surface is vertical, like a wall) or crawling (if the surface is horizontal, such as a ceiling). The GM determines which surfaces can be climbed or crawled across.</p>"
                },
                "duration": {
                    "value": "5 minutes"
                },
                "hasCounteractCheck": {
                    "value": false
                },
                "heightenedLevel": {
                    "value": 3
                },
                "level": {
                    "value": 3
                },
                "location": {
                    "value": "W1uyRdJuvABJ7epP"
                },
                "materials": {
                    "value": ""
                },
                "prepared": {
                    "value": ""
                },
                "primarycheck": {
                    "value": ""
                },
                "range": {
                    "value": "touch"
                },
                "rules": [],
                "save": {
                    "basic": "",
                    "value": ""
                },
                "school": {
                    "value": "evocation"
                },
                "secondarycasters": {
                    "value": ""
                },
                "secondarycheck": {
                    "value": ""
                },
                "slug": "levitate",
                "source": {
                    "value": "Pathfinder Core Rulebook"
                },
                "spellType": {
                    "value": "utility"
                },
                "sustained": {
                    "value": false
                },
                "target": {
                    "value": "1 unattended object or willing creature"
                },
                "time": {
                    "value": "2"
                },
                "traditions": {
                    "value": [
                        "arcane",
                        "occult"
                    ]
                },
                "traits": {
                    "custom": "",
                    "rarity": {
                        "value": "common"
                    },
                    "value": []
                }
            },
            "effects": [],
            "flags": {
                "core": {
                    "sourceId": "Compendium.pf2e.spells-srd.fI20AVwOzJMHXRdo"
                }
            },
            "img": "systems/pf2e/icons/spells/levitate.webp",
            "name": "Levitate (At Will)",
            "sort": 700000,
            "type": "spell"
        },
        {
            "_id": "jwzA0HSTix25cCzk",
            "data": {
                "MAP": {
                    "value": ""
                },
                "baseItem": "greatsword",
                "bonus": {
                    "value": 0
                },
                "bonusDamage": {
                    "value": 0
                },
                "brokenThreshold": {
                    "value": 0
                },
                "bulkCapacity": {
                    "value": ""
                },
                "category": "martial",
                "collapsed": {
                    "value": false
                },
                "containerId": {
                    "value": ""
                },
                "damage": {
                    "damageType": "slashing",
                    "dice": 1,
                    "die": "d12",
                    "value": ""
                },
                "description": {
                    "value": "<p>This immense two‑handed sword is nearly as tall as its wielder. Its lower blade is often somewhat dulled to allow it to be gripped for extra leverage in close‑quarter fights.</p>"
                },
                "equipped": {
                    "value": true
                },
                "equippedBulk": {
                    "value": ""
                },
                "group": "sword",
                "hands": {
                    "value": ""
                },
                "hardness": {
                    "value": 0
                },
                "hp": {
                    "value": 0
                },
                "identification": {
                    "misidentified": {},
                    "status": "identified",
                    "unidentified": {
                        "data": {
                            "description": {
                                "value": ""
                            }
                        },
                        "img": "",
                        "name": ""
                    }
                },
                "invested": {
                    "value": false
                },
                "level": {
                    "value": 0
                },
                "maxHp": {
                    "value": 0
                },
                "negateBulk": {
                    "value": "0"
                },
                "potencyRune": {
                    "value": 1
                },
                "preciousMaterial": {
                    "value": null
                },
                "preciousMaterialGrade": {
                    "value": null
                },
                "price": {
                    "value": "2 gp"
                },
                "property1": {
                    "critDamage": "",
                    "critDamageType": "",
                    "critDice": null,
                    "critDie": "",
                    "criticalConditionType": "",
                    "criticalConditionValue": null,
                    "damageType": "",
                    "dice": null,
                    "die": "",
                    "strikeConditionType": "",
                    "strikeConditionValue": null,
                    "value": ""
                },
                "propertyRune1": {
                    "value": null
                },
                "propertyRune2": {
                    "value": null
                },
                "propertyRune3": {
                    "value": null
                },
                "propertyRune4": {
                    "value": null
                },
                "quantity": {
                    "value": 1
                },
                "range": null,
                "reload": {
                    "value": ""
                },
                "rules": [],
                "size": {
                    "value": "huge"
                },
                "slug": "greatsword",
                "source": {
                    "value": "Pathfinder Core Rulebook"
                },
                "specific": {
                    "value": false
                },
                "splashDamage": {
                    "value": 0
                },
                "stackGroup": {
                    "value": ""
                },
                "strikingRune": {
                    "value": "striking"
                },
                "traits": {
                    "custom": "",
                    "rarity": {
                        "value": "common"
                    },
                    "value": [
                        "versatile-p"
                    ]
                },
                "usage": {
                    "value": "held-in-two-hands"
                },
                "weight": {
                    "value": "2"
                }
            },
            "effects": [],
            "flags": {
                "core": {
                    "sourceId": "Compendium.pf2e.equipment-srd.UX71GkWBL9g41VwM"
                }
            },
            "img": "systems/pf2e/icons/equipment/weapons/greatsword.webp",
            "name": "Greatsword",
            "sort": 800000,
            "type": "weapon"
        },
        {
            "_id": "6fjCT3m2EESdN8jy",
            "data": {
                "baseItem": null,
                "brokenThreshold": {
                    "value": 0
                },
                "bulkCapacity": {
                    "value": ""
                },
                "collapsed": {
                    "value": false
                },
                "containerId": {
                    "value": ""
                },
                "description": {
                    "value": ""
                },
                "equipped": {
                    "value": true
                },
                "equippedBulk": {
                    "value": ""
                },
                "hardness": {
                    "value": 0
                },
                "hp": {
                    "value": 0
                },
                "identification": {
                    "misidentified": {},
                    "status": "identified",
                    "unidentified": {
                        "data": {
                            "description": {
                                "value": ""
                            }
                        },
                        "img": "",
                        "name": ""
                    }
                },
                "invested": {
                    "value": false
                },
                "level": {
                    "value": 0
                },
                "maxHp": {
                    "value": 0
                },
                "negateBulk": {
                    "value": "0"
                },
                "preciousMaterial": {
                    "value": ""
                },
                "preciousMaterialGrade": {
                    "value": ""
                },
                "price": {
                    "value": "0 gp"
                },
                "quantity": {
                    "value": 1
                },
                "rules": [],
                "size": {
                    "value": "med"
                },
                "slug": null,
                "source": {
                    "value": ""
                },
                "stackGroup": {
                    "value": ""
                },
                "traits": {
                    "custom": "",
                    "rarity": {
                        "value": "common"
                    },
                    "value": []
                },
                "usage": {
                    "value": "held-in-one-hand"
                },
                "weight": {
                    "value": "-"
                }
            },
            "effects": [],
            "flags": {},
            "img": "systems/pf2e/icons/equipment/adventuring-gear/sack.webp",
            "name": "Sack for Holding Rocks",
            "sort": 900000,
            "type": "equipment"
        },
        {
            "_id": "5E3LlWq9tofQ39za",
            "data": {
                "activation": {
                    "condition": "",
                    "cost": 0,
                    "type": ""
                },
                "autoDestroy": {
                    "_deprecated": true,
                    "value": true
                },
                "autoUse": {
                    "_deprecated": true,
                    "value": true
                },
                "baseItem": null,
                "brokenThreshold": {
                    "value": 0
                },
                "bulkCapacity": {
                    "value": ""
                },
                "charges": {
                    "_deprecated": true,
                    "max": 0,
                    "value": 0
                },
                "collapsed": {
                    "value": false
                },
                "consumableType": {
                    "value": "ammo"
                },
                "consume": {
                    "_deprecated": true,
                    "value": ""
                },
                "containerId": {
                    "value": ""
                },
                "description": {
                    "value": ""
                },
                "duration": {
                    "units": "",
                    "value": null
                },
                "equipped": {
                    "value": true
                },
                "equippedBulk": {
                    "value": ""
                },
                "hardness": {
                    "value": 0
                },
                "hp": {
                    "value": 0
                },
                "identification": {
                    "misidentified": {},
                    "status": "identified",
                    "unidentified": {
                        "data": {
                            "description": {
                                "value": ""
                            }
                        },
                        "img": "",
                        "name": ""
                    }
                },
                "level": {
                    "value": 0
                },
                "maxHp": {
                    "value": 0
                },
                "negateBulk": {
                    "value": "0"
                },
                "preciousMaterial": {
                    "value": ""
                },
                "preciousMaterialGrade": {
                    "value": ""
                },
                "price": {
                    "value": "0 gp"
                },
                "quantity": {
                    "value": 5
                },
                "range": {
                    "long": null,
                    "units": "",
                    "value": null
                },
                "rules": [],
                "size": {
                    "value": "med"
                },
                "slug": null,
                "source": {
                    "value": ""
                },
                "spell": {
                    "data": null,
                    "heightenedLevel": null
                },
                "stackGroup": {
                    "value": ""
                },
                "target": {
                    "type": "",
                    "units": "",
                    "value": null
                },
                "traits": {
                    "custom": "",
                    "rarity": {
                        "value": "common"
                    },
                    "value": []
                },
                "usage": {
                    "value": "held-in-one-hand"
                },
                "uses": {
                    "autoDestroy": true,
                    "autoUse": true,
                    "max": 0,
                    "per": null,
                    "value": 0
                },
                "weight": {
                    "value": "-"
                }
            },
            "effects": [],
            "flags": {},
            "img": "systems/pf2e/icons/spells/shape-stone.webp",
            "name": "Rock",
            "sort": 1000000,
            "type": "consumable"
        },
        {
            "_id": "AIacQlgZQnMm7C6j",
            "data": {
                "attack": {
                    "value": ""
                },
                "attackEffects": {
                    "custom": "",
                    "value": []
                },
                "bonus": {
                    "value": 28
                },
                "damageRolls": {
                    "f9cxgaqf1x96597cryfy": {
                        "damage": "2d12+16",
                        "damageType": "slashing"
                    },
                    "l5bleqw35akvzqycj7za": {
                        "damage": "1d6",
                        "damageType": "electricity"
                    }
                },
                "description": {
                    "value": ""
                },
                "rules": [],
                "slug": null,
                "source": {
                    "value": ""
                },
                "traits": {
                    "custom": "",
                    "rarity": {
                        "value": "common"
                    },
                    "value": [
                        "magical",
                        "reach-15",
                        "versatile-p"
                    ]
                },
                "weaponType": {
                    "value": "melee"
                }
            },
            "effects": [],
            "flags": {},
            "img": "systems/pf2e/icons/default-icons/melee.svg",
            "name": "Greatsword",
            "sort": 1100000,
            "type": "melee"
        },
        {
            "_id": "C5Knn5mQqyHvaE7Z",
            "data": {
                "attack": {
                    "value": ""
                },
                "attackEffects": {
                    "custom": "",
                    "value": []
                },
                "bonus": {
                    "value": 27
                },
                "damageRolls": {
                    "eqo36h5by1hndttwaowd": {
                        "damage": "2d8+16",
                        "damageType": "bludgeoning"
                    },
                    "t5hafbgp98pwahyq523l": {
                        "damage": "1d6",
                        "damageType": "electricity"
                    }
                },
                "description": {
                    "value": ""
                },
                "rules": [],
                "slug": null,
                "source": {
                    "value": ""
                },
                "traits": {
                    "custom": "",
                    "rarity": {
                        "value": "common"
                    },
                    "value": [
                        "agile",
                        "reach-15"
                    ]
                },
                "weaponType": {
                    "value": "melee"
                }
            },
            "effects": [],
            "flags": {},
            "img": "systems/pf2e/icons/default-icons/melee.svg",
            "name": "Fist",
            "sort": 1200000,
            "type": "melee"
        },
        {
            "_id": "pVOVd7IIOsuNw3fo",
            "data": {
                "attack": {
                    "value": ""
                },
                "attackEffects": {
                    "custom": "",
                    "value": [
                        "rock"
                    ]
                },
                "bonus": {
                    "value": 37
                },
                "damageRolls": {
                    "dzh300p1dkdv3tqjx35l": {
                        "damage": "2d10+16",
                        "damageType": "bludgeoning"
                    }
                },
                "description": {
                    "value": ""
                },
                "rules": [],
                "slug": null,
                "source": {
                    "value": ""
                },
                "traits": {
                    "custom": "",
                    "rarity": {
                        "value": "common"
                    },
                    "value": [
                        "brutal",
                        "range-increment-120"
                    ]
                },
                "weaponType": {
                    "value": "ranged"
                }
            },
            "effects": [],
            "flags": {},
            "img": "systems/pf2e/icons/default-icons/melee.svg",
            "name": "Rock",
            "sort": 1300000,
            "type": "melee"
        },
        {
            "_id": "ksFT2wzECyEtNKFL",
            "data": {
                "actionCategory": {
                    "value": "interaction"
                },
                "actionType": {
                    "value": "passive"
                },
                "actions": {
                    "value": null
                },
                "description": {
                    "value": "<p>@Localize[PF2E.NPC.Abilities.Glossary.AtWillSpells]</p>"
                },
                "requirements": {
                    "value": ""
                },
                "rules": [],
                "slug": "at-will-spells",
                "source": {
                    "value": ""
                },
                "traits": {
                    "custom": "",
                    "rarity": {
                        "value": "common"
                    },
                    "value": []
                },
                "trigger": {
                    "value": ""
                },
                "weapon": {
                    "value": ""
                }
            },
            "effects": [],
            "flags": {
                "core": {
                    "sourceId": "Compendium.pf2e.bestiary-ability-glossary-srd.2YRDYVnC1eljaXKK"
                }
            },
            "img": "systems/pf2e/icons/actions/Passive.webp",
            "name": "At-Will Spells",
            "sort": 1400000,
            "type": "action"
        },
        {
            "_id": "B9VILNOR0aKT4LQ0",
            "data": {
                "actionCategory": {
                    "value": "interaction"
                },
                "actionType": {
                    "value": "passive"
                },
                "actions": {
                    "value": null
                },
                "description": {
                    "value": "<p>@Localize[PF2E.NPC.Abilities.Glossary.LowLightVision]</p>"
                },
                "requirements": {
                    "value": ""
                },
                "rules": [],
                "slug": "low-light-vision",
                "source": {
                    "value": ""
                },
                "traits": {
                    "custom": "",
                    "rarity": {
                        "value": "common"
                    },
                    "value": []
                },
                "trigger": {
                    "value": ""
                },
                "weapon": {
                    "value": ""
                }
            },
            "effects": [],
            "flags": {
                "core": {
                    "sourceId": "Compendium.pf2e.bestiary-ability-glossary-srd.fFu2sZz4KB01fVRc"
                }
            },
            "img": "systems/pf2e/icons/actions/Passive.webp",
            "name": "Low-Light Vision",
            "sort": 1500000,
            "type": "action"
        },
        {
            "_id": "86ZM2qT4ANthqpil",
            "data": {
                "actionCategory": {
                    "value": "interaction"
                },
                "actionType": {
                    "value": "passive"
                },
                "actions": {
                    "value": null
                },
                "description": {
                    "value": "<p>@Localize[PF2E.NPC.Abilities.Glossary.ConstantSpells]</p>"
                },
                "requirements": {
                    "value": ""
                },
                "rules": [],
                "slug": "constant-spells",
                "source": {
                    "value": ""
                },
                "traits": {
                    "custom": "",
                    "rarity": {
                        "value": "common"
                    },
                    "value": []
                },
                "trigger": {
                    "value": ""
                },
                "weapon": {
                    "value": ""
                }
            },
            "effects": [],
            "flags": {
                "core": {
                    "sourceId": "Compendium.pf2e.bestiary-ability-glossary-srd.kakyXBG5WA8c6Zfd"
                }
            },
            "img": "systems/pf2e/icons/actions/Passive.webp",
            "name": "Constant Spells",
            "sort": 1600000,
            "type": "action"
        },
        {
            "_id": "0Xocyn67jFjoV2Ff",
            "data": {
                "actionCategory": {
                    "value": "defensive"
                },
                "actionType": {
                    "value": "reaction"
                },
                "actions": {
                    "value": null
                },
                "description": {
                    "value": "<p>@Localize[PF2E.NPC.Abilities.Glossary.CatchRock]</p>"
                },
                "requirements": {
                    "value": ""
                },
                "rules": [],
                "slug": "catch-rock",
                "source": {
                    "value": ""
                },
                "traits": {
                    "custom": "",
                    "rarity": {
                        "value": "common"
                    },
                    "value": []
                },
                "trigger": {
                    "value": ""
                },
                "weapon": {
                    "value": ""
                }
            },
            "effects": [],
            "flags": {
                "core": {
                    "sourceId": "Compendium.pf2e.bestiary-ability-glossary-srd.uG0Z8PsyZtsYuvGR"
                }
            },
            "img": "systems/pf2e/icons/actions/Reaction.webp",
            "name": "Catch Rock",
            "sort": 1700000,
            "type": "action"
        },
        {
            "_id": "OvsLPiSD2whyqgU0",
            "data": {
                "actionCategory": {
                    "value": "offensive"
                },
                "actionType": {
                    "value": "action"
                },
                "actions": {
                    "value": 3
                },
                "description": {
                    "value": "<p>The storm giant raises one hand to the sky, channeling a bolt of lightning into the blade held in the other. The giant makes a greatsword Strike with a -2 circumstance penalty against each creature within its reach.</p>\n<p>It makes only one attack roll and compares the result against each creature's AC. This Strike deals an additional [[/r {3d12}[electricity]]]{3d12 electricity damage} and counts as two attacks for the giant's multiple attack penalty.</p>"
                },
                "requirements": {
                    "value": ""
                },
                "rules": [
                    {
                        "key": "ToggleProperty",
                        "property": "flags.pf2e.rollOptions.all.lightningBlade"
                    },
                    {
                        "key": "FlatModifier",
                        "predicate": {
                            "all": [
                                "lightningBlade"
                            ]
                        },
                        "selector": "greatsword-attack",
                        "type": "circumstance",
                        "value": -2
                    },
                    {
                        "damageType": "electricity",
                        "diceNumber": 3,
                        "dieSize": "d12",
                        "key": "DamageDice",
                        "predicate": {
                            "all": [
                                "lightningBlade"
                            ]
                        },
                        "selector": "greatsword-damage"
                    }
                ],
                "slug": null,
                "source": {
                    "value": ""
                },
                "traits": {
                    "custom": "",
                    "rarity": {
                        "value": "common"
                    },
                    "value": [
                        "electricity",
                        "evocation",
                        "primal"
                    ]
                },
                "trigger": {
                    "value": ""
                },
                "weapon": {
                    "value": ""
                }
            },
            "effects": [],
            "flags": {},
            "img": "systems/pf2e/icons/actions/ThreeActions.webp",
            "name": "Lightning Blade",
            "sort": 1800000,
            "type": "action"
        },
        {
            "_id": "casqOYm41JuCEUGY",
            "data": {
                "actionCategory": {
                    "value": "offensive"
                },
                "actionType": {
                    "value": "action"
                },
                "actions": {
                    "value": 1
                },
                "description": {
                    "value": "<p>The storm giant makes a single greatsword Strike and compares the attack roll result to the ACs of up to two foes within its reach. This counts as two attacks for the giant's multiple attack penalty.</p>"
                },
                "requirements": {
                    "value": ""
                },
                "rules": [],
                "slug": null,
                "source": {
                    "value": ""
                },
                "traits": {
                    "custom": "",
                    "rarity": {
                        "value": "common"
                    },
                    "value": []
                },
                "trigger": {
                    "value": ""
                },
                "weapon": {
                    "value": ""
                }
            },
            "effects": [],
            "flags": {},
            "img": "systems/pf2e/icons/actions/OneAction.webp",
            "name": "Wide Swing",
            "sort": 1900000,
            "type": "action"
        },
        {
            "_id": "aoLTJq3XbJ29K6yY",
            "data": {
                "actionCategory": {
                    "value": "offensive"
                },
                "actionType": {
                    "value": "action"
                },
                "actions": {
                    "value": 1
                },
                "description": {
                    "value": "<p>@Localize[PF2E.NPC.Abilities.Glossary.ThrowRock]</p>"
                },
                "requirements": {
                    "value": ""
                },
                "rules": [],
                "slug": "throw-rock",
                "source": {
                    "value": ""
                },
                "traits": {
                    "custom": "",
                    "rarity": {
                        "value": "common"
                    },
                    "value": []
                },
                "trigger": {
                    "value": ""
                },
                "weapon": {
                    "value": ""
                }
            },
            "effects": [],
            "flags": {
                "core": {
                    "sourceId": "Compendium.pf2e.bestiary-ability-glossary-srd.a0tx6exmB9v9CUsj"
                }
            },
            "img": "systems/pf2e/icons/actions/OneAction.webp",
            "name": "Throw Rock",
            "sort": 2000000,
            "type": "action"
        },
        {
            "_id": "BJVGudBqV2FH3Ea2",
            "data": {
                "description": {
                    "value": ""
                },
                "item": {
                    "value": 0
                },
                "mod": {
                    "value": 20
                },
                "proficient": {
                    "value": 0
                },
                "rules": [],
                "slug": null,
                "source": {
                    "value": ""
                },
                "traits": {
                    "custom": "",
                    "rarity": {
                        "value": "common"
                    },
                    "value": []
                }
            },
            "effects": [],
            "flags": {},
            "img": "systems/pf2e/icons/default-icons/lore.svg",
            "name": "Acrobatics",
            "sort": 2100000,
            "type": "lore"
        },
        {
            "_id": "DIq8eccpNjNuFKpP",
            "data": {
                "description": {
                    "value": ""
                },
                "item": {
                    "value": 0
                },
                "mod": {
                    "value": 27
                },
                "proficient": {
                    "value": 0
                },
                "rules": [],
                "slug": null,
                "source": {
                    "value": ""
                },
                "traits": {
                    "custom": "",
                    "rarity": {
                        "value": "common"
                    },
                    "value": []
                }
            },
            "effects": [],
            "flags": {},
            "img": "systems/pf2e/icons/default-icons/lore.svg",
            "name": "Athletics",
            "sort": 2200000,
            "type": "lore"
        },
        {
            "_id": "9iWsdM3QFnbWub8F",
            "data": {
                "description": {
                    "value": ""
                },
                "item": {
                    "value": 0
                },
                "mod": {
                    "value": 24
                },
                "proficient": {
                    "value": 0
                },
                "rules": [],
                "slug": null,
                "source": {
                    "value": ""
                },
                "traits": {
                    "custom": "",
                    "rarity": {
                        "value": "common"
                    },
                    "value": []
                }
            },
            "effects": [],
            "flags": {},
            "img": "systems/pf2e/icons/default-icons/lore.svg",
            "name": "Crafting",
            "sort": 2300000,
            "type": "lore"
        },
        {
            "_id": "wCapTpCQfjbTenjn",
            "data": {
                "description": {
                    "value": ""
                },
                "item": {
                    "value": 0
                },
                "mod": {
                    "value": 24
                },
                "proficient": {
                    "value": 0
                },
                "rules": [],
                "slug": null,
                "source": {
                    "value": ""
                },
                "traits": {
                    "custom": "",
                    "rarity": {
                        "value": "common"
                    },
                    "value": []
                }
            },
            "effects": [],
            "flags": {},
            "img": "systems/pf2e/icons/default-icons/lore.svg",
            "name": "Intimidation",
            "sort": 2400000,
            "type": "lore"
        },
        {
            "_id": "0i9gkTZHv0S0kC9s",
            "data": {
                "description": {
                    "value": ""
                },
                "item": {
                    "value": 0
                },
                "mod": {
                    "value": 22
                },
                "proficient": {
                    "value": 0
                },
                "rules": [],
                "slug": null,
                "source": {
                    "value": ""
                },
                "traits": {
                    "custom": "",
                    "rarity": {
                        "value": "common"
                    },
                    "value": []
                }
            },
            "effects": [],
            "flags": {},
            "img": "systems/pf2e/icons/default-icons/lore.svg",
            "name": "Performance",
            "sort": 2500000,
            "type": "lore"
        }
    ],
    "name": "Storm Giant",
    "token": {
        "disposition": -1,
        "height": 3,
        "img": "systems/pf2e/icons/default-icons/npc.svg",
        "name": "Storm Giant",
        "width": 3
    },
    "type": "npc"
}
